﻿<?xml version="1.0" encoding="utf-8"?>
<COLLADA xmlns:xsi="http://www.w3.org/2001/XMLSchema-instance" xmlns:xsd="http://www.w3.org/2001/XMLSchema" version="1.4.1" xmlns="http://www.collada.org/2005/11/COLLADASchema">
	<asset>
		<created>2024-02-25T16:09:40.6386841-06:00</created>
		<modified>2024-02-25T16:09:40.6387173-06:00</modified>
	</asset>
	<library_images>
		<image id="airboy_board">
			<init_from>./airboy_board.png</init_from>
		</image>
		<image id="airboy_body">
			<init_from>./airboy_body.png</init_from>
		</image>
		<image id="airboy_face.0">
			<init_from>./airboy_face.0.png</init_from>
		</image>
		<image id="airboy_face.1">
			<init_from>./airboy_face.1.png</init_from>
		</image>
		<image id="airboy_face.2">
			<init_from>./airboy_face.2.png</init_from>
		</image>
		<image id="airboy_shadow">
			<init_from>./airboy_shadow.png</init_from>
		</image>
		<image id="block_shadow">
			<init_from>./block_shadow.png</init_from>
		</image>
		<image id="dog">
			<init_from>./dog.png</init_from>
		</image>
		<image id="dog_sdw">
			<init_from>./dog_sdw.png</init_from>
		</image>
		<image id="floor">
			<init_from>./floor.png</init_from>
		</image>
		<image id="metal_env">
			<init_from>./metal_env.png</init_from>
		</image>
		<image id="mother_ship">
			<init_from>./mother_ship.png</init_from>
		</image>
		<image id="wall_body">
			<init_from>./wall_body.png</init_from>
		</image>
		<image id="cloud01">
			<init_from>./cloud01.png</init_from>
		</image>
	</library_images>
	<library_materials>
		<material id="dogMt_id" name="dogMt">
			<instance_effect url="#dogMt_eff_id" />
		</material>
		<material id="sdwMt_id" name="sdwMt">
			<instance_effect url="#sdwMt_eff_id" />
		</material>
	</library_materials>
	<library_effects>
		<effect id="dogMt_eff_id" name="dogMt_eff">
			<profile_COMMON>
				<newparam sid="dogMt_surf">
					<surface type="2D">
						<init_from>dog</init_from>
						<format>PNG</format>
					</surface>
				</newparam>
				<newparam sid="dogMt_samp">
					<sampler2D>
						<source>dogMt_surf</source>
						<wrap_s>WRAP</wrap_s>
						<wrap_t>WRAP</wrap_t>
						<minfilter>LINEAR_MIPMAP_NEAREST</minfilter>
						<magfilter>LINEAR</magfilter>
						<mipfilter>LINEAR</mipfilter>
					</sampler2D>
				</newparam>
				<technique sid="dogMt_tech">
					<phong>
						<diffuse>
							<texture texture="dogMt_samp" texcoord="uv" />
						</diffuse>
					</phong>
				</technique>
			</profile_COMMON>
		</effect>
		<effect id="sdwMt_eff_id" name="sdwMt_eff">
			<profile_COMMON>
				<newparam sid="sdwMt_surf">
					<surface type="2D">
						<init_from>dog_sdw</init_from>
						<format>PNG</format>
					</surface>
				</newparam>
				<newparam sid="sdwMt_samp">
					<sampler2D>
						<source>sdwMt_surf</source>
						<wrap_s>WRAP</wrap_s>
						<wrap_t>WRAP</wrap_t>
						<minfilter>LINEAR_MIPMAP_NEAREST</minfilter>
						<magfilter>LINEAR</magfilter>
						<mipfilter>LINEAR</mipfilter>
					</sampler2D>
				</newparam>
				<technique sid="sdwMt_tech">
					<phong>
						<diffuse>
							<texture texture="sdwMt_samp" texcoord="uv" />
						</diffuse>
					</phong>
				</technique>
			</profile_COMMON>
		</effect>
	</library_effects>
	<library_geometries>
		<geometry id="_0_geo_id" name="">
			<mesh>
				<source id="_0_Position_id" name="_0_Position">
					<float_array id="_0_Position_array_id" count="930">-0.215007 2.1419864 -3.0042129 0.215007 2.1419864 -3.0042129 -0.215007 1.7669713 -3.0042129 0.215007 1.7669713 -3.0042129 0.215007 1.6919785 -2.92922 0.215007 1.6919785 -2.5792048 -0.215007 1.6919785 -2.92922 -0.215007 1.6919785 -2.5792048 -0.29 1.7669713 -2.5792048 -0.29 2.1419864 -2.5792048 -0.29 1.7669713 -2.92922 -0.29 2.1419864 -2.92922 0.29 2.1419864 -2.92922 0.29 2.1419864 -2.5792048 0.29 1.7669713 -2.92922 0.29 1.7669713 -2.5792048 0.215007 2.1419864 -2.5042129 -0.215007 2.1419864 -2.5042129 0.215007 1.7669713 -2.5042129 -0.215007 1.7669713 -2.5042129 0.215007 2.2169783 -2.92922 -0.215007 2.2169783 -2.92922 0.215007 2.2169783 -2.5792048 -0.215007 2.2169783 -2.5792048 0.116 0.834152 -2.4479206 0.09619099 0.055053055 -2.4598746 0.116 0.834152 -2.2029095 0.09619099 0.055053055 -2.1909566 0.15380798 -0.0025639534 -2.4598746 0.48419088 -0.0025639534 -2.4598746 0.15380798 -0.0025639534 -2.1909566 0.48419088 -0.0025639534 -2.1909566 0.16849399 0.834152 -2.1504157 0.15380798 0.055053055 -2.1333385 0.46950477 0.834152 -2.1504157 0.48419088 0.055053055 -2.1333385 0.46950477 0.834152 -2.5004156 0.48419088 0.055053055 -2.5174916 0.16849399 0.834152 -2.5004156 0.15380798 0.055053055 -2.5174916 0.522 0.834152 -2.2029095 0.541808 0.055053055 -2.1909566 0.522 0.834152 -2.4479206 0.541808 0.055053055 -2.4598746 -0.11600001 0.8752672 -0.6526641 -0.11600001 0.05249244 -0.6526641 -0.11600001 0.8752672 -0.8976741 -0.11600001 0.05249244 -0.8976741 -0.168495 -2.5629997E-06 -0.6526641 -0.469505 -2.5629997E-06 -0.6526641 -0.168495 -2.5629997E-06 -0.8976741 -0.469505 -2.5629997E-06 -0.8976741 -0.168495 0.8752672 -0.9501691 -0.168495 0.05249244 -0.9501691 -0.469505 0.875406 -0.9501691 -0.469505 0.05249244 -0.9501691 -0.469505 0.875406 -0.6001691 -0.469505 0.05249244 -0.6001691 -0.168495 0.8752672 -0.6001691 -0.168495 0.05249244 -0.6001691 -0.522 0.875406 -0.8976741 -0.522 0.05249244 -0.8976741 -0.522 0.875406 -0.6526641 -0.522 0.05249244 -0.6526641 0.11600001 0.83415174 -0.89809215 0.096192 0.055053473 -0.9100461 0.11600001 0.83415174 -0.6530811 0.096192 0.055053473 -0.6411281 0.15380901 -0.0025635362 -0.9100461 0.484191 -0.0025635362 -0.9100461 0.15380901 -0.0025635362 -0.6411281 0.484191 -0.0025635362 -0.6411281 0.168495 0.83415174 -0.6005871 0.15380901 0.055053473 -0.5835111 0.469505 0.83415174 -0.6005871 0.484191 0.055053473 -0.5835111 0.469505 0.83415174 -0.9505871 0.484191 0.055053473 -0.9676631 0.168495 0.83415174 -0.9505871 0.15380901 0.055053473 -0.9676631 0.522 0.83415174 -0.6530811 0.541808 0.055053473 -0.6411281 0.522 0.83415174 -0.89809215 0.541808 0.055053473 -0.9100461 -0.406017 1.9760134 -2.622244 0.406017 1.9760134 -2.622244 -0.406017 0.8239801 -2.622244 0.406017 0.8239801 -2.622244 0.406017 0.6500001 -2.448261 0.406017 0.6500001 -0.67350006 -0.406017 0.6500001 -2.448261 -0.406017 0.6500001 -0.67350006 -0.58 0.8239801 -0.67350006 -0.58 1.9760134 -0.67350006 -0.58 0.8239801 -2.448261 -0.58 1.9760134 -2.448261 0.58 1.9760134 -2.448261 0.58 1.9760134 -0.67350006 0.58 0.8239801 -2.448261 0.58 0.8239801 -0.67350006 0.406017 1.9760134 -0.49951005 -0.406017 1.9760134 -0.49951005 0.406017 0.8239801 -0.49951005 -0.406017 0.8239801 -0.49951005 0.406017 2.149996 -2.448261 -0.406017 2.149996 -2.448261 0.406017 2.149996 -0.67350006 -0.406017 2.149996 -0.67350006 0.316987 1.4728332 0.53695196 0.316987 1.4728332 1.216964 -0.316987 1.4728332 0.53695196 -0.316987 1.4728332 1.216964 0.316987 2.1528451 1.336952 -0.316987 2.1528451 1.336952 0.316987 1.5928211 1.336952 -0.316987 1.5928211 1.336952 0.427549 2.1528451 0.53695196 0.427549 2.1528451 1.216964 0.427549 1.5928211 0.53695196 0.427549 1.5928211 1.216964 -0.427549 1.5928211 0.53695196 -0.427549 1.5928211 1.216964 -0.427549 2.1528451 0.53695196 -0.427549 2.1528451 1.216964 -0.316987 2.239731 0.53695196 -0.316987 2.239731 1.216964 0.316987 2.239731 0.53695196 0.316987 2.239731 1.216964 0.316987 1.5928211 1.336952 0.316987 2.1528451 1.336952 -0.316987 1.5928211 1.336952 -0.316987 2.1528451 1.336952 -0.92651 2.899612 -0.71305 -0.72349 2.899612 -0.71305 -0.92651 2.0025916 -0.71305 -0.72349 2.0025916 -0.71305 -0.72349 1.9011021 -0.6115601 -0.72349 1.9011021 -0.06453806 -0.92651 1.9011021 -0.6115601 -0.92651 1.9011021 -0.06453806 -1.028 2.0025916 -0.06453806 -1.028 2.899612 -0.06453806 -1.028 2.0025916 -0.6115601 -1.028 2.899612 -0.6115601 -0.622 2.899612 -0.6115601 -0.622 2.899612 -0.06453806 -0.622 2.0025916 -0.6115601 -0.622 2.0025916 -0.06453806 -0.72349 2.899612 0.03695196 -0.92651 2.899612 0.03695196 -0.72349 2.0025916 0.03695196 -0.92651 2.0025916 0.03695196 -0.72349 3.001102 -0.6115601 -0.92651 3.001102 -0.6115601 -0.72349 3.001102 -0.06453806 -0.92651 3.001102 -0.06453806 0.59052 2.899612 -0.06453806 0.59052 2.899612 -0.6115601 0.59052 2.0025916 -0.06453806 0.59052 2.0025916 -0.6115601 0.69201 1.9011021 -0.6115601 0.89503 1.9011021 -0.6115601 0.69201 1.9011021 -0.06453806 0.89503 1.9011021 -0.06453806 0.89503 2.0025916 0.03695196 0.89503 2.899612 0.03695196 0.69201 2.0025916 0.03695196 0.69201 2.899612 0.03695196 0.69201 2.899612 -0.71305 0.89503 2.899612 -0.71305 0.69201 2.0025916 -0.71305 0.89503 2.0025916 -0.71305 0.99652 2.899612 -0.6115601 0.99652 2.899612 -0.06453806 0.99652 2.0025916 -0.6115601 0.99652 2.0025916 -0.06453806 0.89503 3.001102 -0.6115601 0.69201 3.001102 -0.6115601 0.89503 3.001102 -0.06453806 0.69201 3.001102 -0.06453806 0 3.226675 -0.27553904 -0.165627 3.2215753 -0.27553904 0 3.1551952 -0.18804806 -0.165627 3.150095 -0.18804806 0 3.226675 -0.4505601 -0.165627 3.2215753 -0.4505601 -0.165627 3.150095 -0.53805006 0 3.1551952 -0.53805006 0.165627 3.150095 -0.53805006 0.165627 3.2215753 -0.4505601 0.165627 3.2215753 -0.27553904 0.165627 3.150095 -0.18804806 -0.331254 3.2109551 -0.27553904 -0.331254 3.2109551 -0.4505601 -0.496882 3.195265 -0.4505601 -0.496882 3.195265 -0.27553904 0.496882 3.195265 -0.4505601 0.496882 3.195265 -0.27553904 0.614294 3.1629252 -0.4505601 0.614294 3.1629252 -0.27553904 0.331254 3.2109551 -0.4505601 0.331254 3.2109551 -0.27553904 0.331254 3.139465 -0.18804806 0.331254 3.139465 -0.53805006 0.496882 3.123785 -0.18804806 -0.331254 3.139465 -0.18804806 -0.331254 3.139465 -0.53805006 -0.496882 3.123785 -0.53805006 -0.165627 2.958044 -0.18804806 0 2.965039 -0.18804806 -0.165627 2.958044 -0.53805006 0 2.965039 -0.53805006 0.165627 2.958044 -0.53805006 0.165627 2.958044 -0.18804806 -0.331254 2.945148 -0.53805006 0.331254 2.945148 -0.18804806 0.331254 2.945148 -0.53805006 -0.331254 2.945148 -0.18804806 -0.496882 2.9272 -0.53805006 0.662509 3.091885 -0.18804806 0.496882 2.9272 -0.18804806 -0.496882 3.123785 -0.18804806 -0.496882 2.9272 -0.18804806 -0.614294 3.1629252 -0.4505601 -0.662509 3.091885 -0.53805006 -0.614294 3.1629252 -0.27553904 -0.662509 3.091885 -0.18804806 0.496882 3.123785 -0.53805006 0.496882 2.9272 -0.53805006 0 2.939119 -0.21291208 -0.165601 2.932693 -0.21291208 0 2.939119 -0.51318 -0.165601 2.932693 -0.51318 0.165601 2.932693 -0.51318 0.165601 2.932693 -0.21291208 -0.331219 2.9197972 -0.21291208 -0.331219 2.9197972 -0.51318 0.331219 2.9197972 -0.51318 0.331219 2.9197972 -0.21291208 0.496797 2.901484 -0.51318 0.496797 2.901484 -0.21291208 -0.496797 2.901484 -0.21291208 -0.496797 2.901484 -0.51318 -0.666872 2.898695 -0.19241107 -0.658831 2.874849 -0.20907706 -0.75 3.091885 -0.4505601 -0.666872 2.898695 -0.5336801 -0.75 2.8490462 -0.4505601 -0.658831 2.874849 -0.5170201 -0.75 2.8490462 -0.27553904 -0.75 3.091885 -0.27553904 0.662509 3.091885 -0.53805006 0.666872 2.898695 -0.5336801 0.658831 2.874849 -0.5170201 0.75 3.091885 -0.27553904 0.666872 2.898695 -0.19241107 0.75 2.8490462 -0.27553904 0.658831 2.874849 -0.20907706 0.75 3.091885 -0.4505601 0.75 2.8490462 -0.4505601 -0.427795 2.727119 -0.81305003 0.427795 2.727119 -0.81305003 -0.427795 1.5750841 -0.81305003 0.427795 1.5750841 -0.81305003 0.427795 1.4011021 -0.63907003 0.427795 1.4011021 0.51296896 -0.427795 1.4011021 -0.63907003 -0.427795 1.4011021 0.51296896 -0.61111 1.5750841 -0.63907003 -0.61111 2.727119 -0.63907003 -0.61111 1.5750841 0.51296896 0.61111 1.5750841 -0.63907003 0.61111 2.727119 -0.63907003 0.427795 2.901102 -0.63907003 -0.427795 2.901102 -0.63907003 0.61111 1.5750841 0.51296896 0.61111 2.727119 0.51296896 -0.442947 1.5750841 0.68695205 0.442947 1.5750841 0.68695205 0.427795 2.901102 0.51296896 -0.61111 2.727119 0.51296896 -0.427795 2.901102 0.51296896 -0.442947 2.727119 0.68695205 -0.442947 2.151102 0.68695205 0.442947 2.727119 0.68695205 0.442947 2.151102 0.68695205 0.442947 2.151102 0.68695205 0.442947 2.727119 0.68695205 -0.442947 2.151102 0.68695205 -0.442947 2.727119 0.68695205 -0.116 0.8752674 -2.2024915 -0.116 0.052492082 -2.2024915 -0.116 0.8752674 -2.4475026 -0.116 0.052492082 -2.4475026 -0.16849399 -2.9206276E-06 -2.2024915 -0.46950477 -2.9206276E-06 -2.2024915 -0.16849399 -2.9206276E-06 -2.4475026 -0.46950477 -2.9206276E-06 -2.4475026 -0.16849399 0.8752674 -2.4999976 -0.16849399 0.052492082 -2.4999976 -0.46950477 0.87540615 -2.4999976 -0.46950477 0.052492082 -2.4999976 -0.46950477 0.87540615 -2.1499975 -0.46950477 0.052492082 -2.1499975 -0.16849399 0.8752674 -2.1499975 -0.16849399 0.052492082 -2.1499975 -0.522 0.87540615 -2.4475026 -0.522 0.052492082 -2.4475026 -0.522 0.87540615 -2.2024915 -0.522 0.052492082 -2.2024915</float_array>
					<technique_common>
						<accessor source="#_0_Position_array_id" count="310" stride="3">
							<param name="X" type="float" />
							<param name="Y" type="float" />
							<param name="Z" type="float" />
						</accessor>
					</technique_common>
				</source>
				<source id="_0_Normal_id" name="_0_Normal">
					<float_array id="_0_Normal_array_id" count="930">-0.13152395 0.14960794 -0.97995865 0.13152395 0.14960794 -0.97995865 -0.13152395 -0.14960794 -0.97995865 0.13152395 -0.14960794 -0.97995865 0.13052101 -0.9787161 -0.15836401 0.13052101 -0.9787161 0.15836401 -0.13052101 -0.9787161 -0.15836401 -0.13052101 -0.9787161 0.15836401 -0.97678906 -0.14650302 0.15626901 -0.97678906 0.14650302 0.15626901 -0.97678906 -0.14650302 -0.15626901 -0.97678906 0.14650302 -0.15626901 0.97678906 0.14650302 -0.15626901 0.97678906 0.14650302 0.15626901 0.97678906 -0.14650302 -0.15626901 0.97678906 -0.14650302 0.15626901 0.13152395 0.14960794 0.97995865 -0.13152395 0.14960794 0.97995865 0.14126007 -0.15797107 0.9772875 -0.14126007 -0.15797107 0.9772875 0.13052101 0.9787161 -0.15836401 -0.13052101 0.9787161 -0.15836401 0.13052101 0.9787161 0.15836401 -0.13052101 0.9787161 0.15836401 -0.9845362 0.027685706 -0.17298003 -0.9851456 -0.037561685 -0.16756295 -0.9845362 0.027685706 0.17298003 -0.9851456 -0.037561685 0.16756295 -0.13052101 -0.9787161 -0.15836401 0.13052101 -0.9787161 -0.15836401 -0.13052101 -0.9787161 0.15836401 0.13052101 -0.9787161 0.15836401 -0.14555804 0.024421707 0.9890483 -0.14202099 -0.042242195 0.9889619 0.14555804 0.024421707 0.9890483 0.14202099 -0.042242195 0.9889619 0.14555804 0.024421707 -0.9890483 0.14202099 -0.042242195 -0.9889619 -0.14555804 0.024421707 -0.9890483 -0.14202099 -0.042242195 -0.9889619 0.9845362 0.027685706 0.17298003 0.9851456 -0.037561685 0.16756295 0.9845362 0.027685706 -0.17298003 0.9851456 -0.037561685 -0.16756295 0.98478717 0 0.17376503 0.98440063 -0.05246498 0.16793694 0.984787 0 -0.173766 0.98440063 -0.05246498 -0.16793694 0.13052101 -0.9787161 0.15836401 -0.13052101 -0.9787161 0.15836401 0.13052101 -0.9787161 -0.15836401 -0.13052101 -0.9787161 -0.15836401 0.14684102 0 -0.9891601 0.14174502 -0.053729005 -0.98844403 -0.14693308 0 -0.9891465 -0.14176503 -0.05372751 -0.9884412 -0.14693308 0 0.9891465 -0.14176404 -0.05372752 0.98844135 0.14684102 0 0.9891601 0.14174502 -0.053729005 0.98844403 -0.984787 0 -0.173766 -0.984401 -0.0524566 -0.167938 -0.984787 0 0.173766 -0.984401 -0.0524566 0.167938 -0.9845362 0.027685706 -0.17298003 -0.9851456 -0.037561685 -0.16756295 -0.9845362 0.027685706 0.17298003 -0.9851456 -0.037561685 0.16756295 -0.13052101 -0.9787161 -0.15836401 0.13052101 -0.9787161 -0.15836401 -0.13052101 -0.9787161 0.15836401 0.13052101 -0.9787161 0.15836401 -0.14555804 0.024421707 0.9890483 -0.14202099 -0.042242195 0.9889619 0.14555804 0.024421707 0.9890483 0.14202099 -0.042242195 0.9889619 0.14555804 0.024421707 -0.9890483 0.14202099 -0.042242195 -0.9889619 -0.14555804 0.024421707 -0.9890483 -0.14202099 -0.042242195 -0.9889619 0.9845362 0.027685706 0.17298003 0.9851456 -0.037561685 0.16756295 0.9845362 0.027685706 -0.17298003 0.9851456 -0.037561685 -0.16756295 -0.16032001 0.115272015 -0.9803111 0.16032001 0.115272015 -0.9803111 -0.16032001 -0.115272015 -0.9803111 0.16032001 -0.115272015 -0.9803111 0.16489194 -0.98320067 -0.07827567 0.16489194 -0.98320067 0.07827567 -0.16489194 -0.98320067 -0.07827567 -0.16489194 -0.98320067 0.07827567 -0.98907673 -0.12300997 0.081214175 -0.98907673 0.12300997 0.081214175 -0.98907673 -0.12300997 -0.081214175 -0.98907673 0.12300997 -0.081214175 0.98907673 0.12300997 -0.081214175 0.98907673 0.12300997 0.081214175 0.98907673 -0.12300997 -0.081214175 0.98907673 -0.12300997 0.081214175 0.16032001 0.115272015 0.9803111 -0.16032001 0.115272015 0.9803111 0.16032001 -0.115272015 0.9803111 -0.16032001 -0.115272015 0.9803111 0.16489194 0.98320067 -0.07827567 -0.16489194 0.98320067 -0.07827567 0.16489194 0.98320067 0.07827567 -0.16489194 0.98320067 0.07827567 0.15910494 -0.98726165 0 0.14418896 -0.98038864 0.13434196 -0.15910494 -0.98726165 0 -0.14418896 -0.98038864 0.13434196 0.14442803 0.16439204 0.9757642 -0.14442803 0.16439204 0.9757642 0.14126007 -0.15797107 0.9772875 -0.14126007 -0.15797107 0.9772875 0.98570764 0.16846494 0 0.9803741 0.15258001 0.124844015 0.9870389 -0.16048099 0 0.9816339 -0.14652598 0.12216798 -0.9870389 -0.16048099 0 -0.9816339 -0.14652598 0.12216798 -0.98570764 0.16846494 0 -0.9803741 0.15258001 0.124844015 -0.115911946 0.99325955 0 -0.10622102 0.98940617 0.09895722 0.115911946 0.99325955 0 0.10622102 0.98940617 0.09895722 0.14126007 -0.15797107 0.9772875 0.14442803 0.16439204 0.9757642 -0.14126007 -0.15797107 0.9772875 -0.14442803 0.16439204 0.9757642 -0.30205 0.0768551 -0.950189 0.30205 0.0768551 -0.950189 -0.30205 -0.0768551 -0.950189 0.30205 -0.0768551 -0.950189 0.29334113 -0.9484954 -0.11961405 0.29334113 -0.9484954 0.11961405 -0.29334202 -0.9484951 -0.11961401 -0.29334202 -0.9484951 0.11961401 -0.9852291 -0.090653405 0.14527802 -0.9852291 0.090653405 0.14527802 -0.9852291 -0.090653405 -0.14527802 -0.9852291 0.090653405 -0.14527802 0.9852291 0.090653606 -0.14527802 0.9852291 0.09065351 0.14527802 0.9852291 -0.090653606 -0.14527802 0.9852291 -0.09065351 0.14527802 0.30205 0.0768551 0.950189 -0.30205 0.0768551 0.950189 0.30205 -0.0768551 0.950189 -0.30205 -0.0768551 0.950189 0.29334113 0.9484954 -0.11961405 -0.29334202 0.9484951 -0.11961401 0.29334113 0.9484954 0.11961405 -0.29334202 0.9484951 0.11961401 -0.9852291 0.090653405 0.14527802 -0.9852291 0.090653405 -0.14527802 -0.9852291 -0.090653405 0.14527802 -0.9852291 -0.090653405 -0.14527802 -0.29334202 -0.9484951 -0.11961401 0.29334113 -0.9484954 -0.11961405 -0.29334202 -0.9484951 0.11961401 0.29334113 -0.9484954 0.11961405 0.30205 -0.0768551 0.950189 0.30205 0.0768551 0.950189 -0.30205 -0.0768551 0.950189 -0.30205 0.0768551 0.950189 -0.30205 0.0768551 -0.950189 0.30205 0.0768551 -0.950189 -0.30205 -0.0768551 -0.950189 0.30205 -0.0768551 -0.950189 0.9852291 0.090653606 -0.14527802 0.9852291 0.09065351 0.14527802 0.9852291 -0.090653606 -0.14527802 0.9852291 -0.09065351 0.14527802 0.29334113 0.9484954 -0.11961405 -0.29334202 0.9484951 -0.11961401 0.29334113 0.9484954 0.11961405 -0.29334202 0.9484951 0.11961401 0 0.9654159 0.26071498 -0.04567011 0.96415526 0.26137906 0 0.32278 0.946474 -0.015224607 0.3185661 0.9477784 0 0.9654159 -0.26071498 -0.04567011 0.96415526 -0.26137906 -0.015224607 0.3185661 -0.9477784 0 0.32278 -0.946474 0.015224506 0.3185661 -0.9477784 0.0456701 0.964155 -0.26138 0.04567011 0.96415526 0.26137906 0.015224607 0.3185661 0.9477784 -0.07628583 0.96232337 0.2609871 -0.07628583 0.96232337 -0.2609871 -0.15550005 0.9531114 -0.2596121 -0.15550005 0.9531114 0.2596121 0.15549996 0.95311177 -0.25961095 0.15550005 0.9531114 0.2596121 0.33739492 0.9186618 -0.20548795 0.33739492 0.9186618 0.20548795 0.07628583 0.96232337 -0.2609871 0.07628583 0.96232337 0.2609871 0.025245305 0.3158831 0.94846225 0.025245305 0.3158831 -0.94846225 0.05252819 0.30371496 0.95131385 -0.025245313 0.31588218 0.94846255 -0.025245406 0.3158831 -0.94846225 -0.052528393 0.30371496 -0.95131385 0.0065482007 -0.11157802 0.9937341 0.0065482007 -0.11157802 0.9937341 0 -0.109468035 -0.99399036 0 -0.109468035 -0.99399036 0 -0.109468035 -0.99399036 -0.0065482007 -0.11157802 0.9937341 0.010302796 -0.11077096 -0.99379265 -0.0065482007 -0.11157802 0.9937341 -0.010302996 -0.11077096 -0.99379265 0.0065482007 -0.11157802 0.9937341 0 -0.109468035 -0.99399036 0.23079307 0.22608007 0.9463733 -0.0065482007 -0.11157802 0.9937341 -0.05252819 0.30371496 0.95131385 0.0065482007 -0.11157802 0.9937341 -0.33739492 0.9186618 -0.20548795 -0.23079307 0.22608007 -0.9463733 -0.33739492 0.9186618 0.20548795 -0.23079307 0.22608007 0.9463733 0.052528393 0.30371496 -0.95131385 0 -0.109468035 -0.99399036 0 -0.9968035 0.07989236 0.058158506 -0.99520314 0.078665905 0 -0.9968035 -0.07989275 0.058158506 -0.99520314 -0.078665905 -0.05815851 -0.9952032 -0.07866572 -0.05815851 -0.9952032 0.07866552 0.09353561 -0.99253803 0.07822671 0.09353561 -0.99253803 -0.07822671 -0.09353561 -0.99253803 -0.07822661 -0.09353561 -0.99253803 0.078226306 -0.13575098 -0.9876399 -0.07835239 -0.135751 -0.98764 0.078352 0.13575098 -0.9876399 0.078352295 0.13575098 -0.9876399 -0.078352295 -0.2617919 -0.08828817 0.96107763 0.17170201 -0.9811761 0.08838531 -0.91388816 0.37722006 -0.15004502 -0.26179308 -0.08828833 -0.9610773 -0.79446286 -0.58911496 -0.14755498 0.17170201 -0.9811761 -0.08838541 -0.79446286 -0.58911496 0.14755498 -0.91388816 0.37722006 0.15004502 0.23079307 0.22608007 -0.9463733 0.26179215 -0.088288255 -0.9610776 -0.171702 -0.981176 -0.0883855 0.9138883 0.37722012 0.15004404 0.2617919 -0.08828837 0.96107763 0.79446286 -0.58911496 0.14755498 -0.17170201 -0.9811761 0.08838531 0.9138883 0.37722012 -0.15004404 0.79446286 -0.58911496 -0.14755498 -0.16032001 0.115272015 -0.9803111 0.16032001 0.115272015 -0.9803111 -0.16032001 -0.115272015 -0.9803111 0.16032001 -0.115272015 -0.9803111 0.15243801 -0.9815391 -0.11551501 0.15113492 -0.9812055 0.11997494 -0.15243801 -0.9815391 -0.11551501 -0.15113492 -0.9812055 0.11997494 -0.98413926 -0.12543903 -0.12543903 -0.98413926 0.12543903 -0.12543903 -0.98907673 -0.12300997 0.081214175 0.98413926 -0.12543903 -0.12543903 0.98413926 0.12543903 -0.12543903 0.15243801 0.9815391 -0.11551501 -0.15243801 0.9815391 -0.11551501 0.98907673 -0.12300997 0.081214175 0.989408 0.136019 0.0507017 -0.19103298 -0.18604198 0.9637919 0.19103298 -0.18604198 0.9637919 0.15113492 0.9812055 0.11997494 -0.989408 0.136019 0.0507017 -0.15113492 0.9812055 0.11997494 -0.0825561 0.213389 0.973473 -0.20921496 0 0.97786975 0.0825561 0.213389 0.973473 0.20921496 0 0.97786975 0.20921496 0 0.97786975 0.0825561 0.213389 0.973473 -0.20921496 0 0.97786975 -0.0825561 0.213389 0.973473 0.98478717 0 0.17376503 0.98440063 -0.05246498 0.16793694 0.984787 0 -0.173766 0.98440063 -0.05246498 -0.16793694 0.13052101 -0.9787161 0.15836401 -0.13052101 -0.9787161 0.15836401 0.13052101 -0.9787161 -0.15836401 -0.13052101 -0.9787161 -0.15836401 0.14684102 0 -0.9891601 0.14174502 -0.053729005 -0.98844403 -0.14693308 0 -0.9891465 -0.14176503 -0.05372751 -0.9884412 -0.14693308 0 0.9891465 -0.14176404 -0.05372752 0.98844135 0.14684102 0 0.9891601 0.14174502 -0.053729005 0.98844403 -0.984787 0 -0.173766 -0.984401 -0.0524566 -0.167938 -0.984787 0 0.173766 -0.984401 -0.0524566 0.167938</float_array>
					<technique_common>
						<accessor source="#_0_Normal_array_id" count="310" stride="3">
							<param name="X" type="float" />
							<param name="Y" type="float" />
							<param name="Z" type="float" />
						</accessor>
					</technique_common>
				</source>
				<source id="_0_TexCoord0_id" name="_0_TexCoord0">
					<float_array id="_0_TexCoord0_array_id" count="620">0.767401 1.17095 0.877036 1.17095 0.767401 1.17095 0.877036 1.17095 0.877036 1.14877 0.877036 1.04526 0.767401 1.14877 0.767401 1.04526 0.748281 1.04526 0.748281 1.04526 0.748281 1.14877 0.748281 1.14877 0.896156 1.14877 0.896156 1.04526 0.896156 1.14877 0.896156 1.04526 0.877036 1.02308 0.767401 1.02308 0.877036 1.02308 0.767401 1.02308 0.877036 1.14877 0.767401 1.14877 0.877036 1.04526 0.767401 1.04526 1.99599 0.514513 1.99118 0.516108 1.99599 0.481823 1.99118 0.480229 2.00516 0.516108 2.08529 0.516108 2.00516 0.480229 2.08529 0.480229 2.00872 0.47482 2.00516 0.472541 2.08173 0.47482 2.08529 0.472541 2.08173 0.521516 2.08529 0.523795 2.00872 0.521516 2.00516 0.523795 2.09446 0.481823 2.09927 0.480229 2.09446 0.514513 2.09927 0.516108 1.93971 0.27499 1.93971 0.27499 1.93971 0.307679 1.93971 0.307679 1.92698 0.27499 1.85397 0.27499 1.92698 0.307679 1.85397 0.307679 1.92698 0.314683 1.92698 0.314683 1.85397 0.314683 1.85397 0.314683 1.85397 0.267986 1.85397 0.267986 1.92698 0.267986 1.92698 0.267986 1.84124 0.307679 1.84124 0.307679 1.84124 0.27499 1.84124 0.27499 1.99599 0.307734 1.99118 0.309329 1.99599 0.275045 1.99118 0.27345 2.00516 0.309329 2.08529 0.309329 2.00516 0.27345 2.08529 0.27345 2.00872 0.268041 2.00516 0.265763 2.08173 0.268041 2.08529 0.265763 2.08173 0.314738 2.08529 0.317017 2.00872 0.314738 2.00516 0.317017 2.09446 0.275045 2.09927 0.27345 2.09446 0.307734 2.09927 0.309329 -0.931612 0.564121 -0.801749 0.564121 -0.931612 0.564121 -0.801749 0.564121 -0.801749 0.548916 -0.801749 0.393814 -0.931612 0.548916 -0.931612 0.393814 -0.959436 0.393814 -0.959436 0.393814 -0.959436 0.548916 -0.959436 0.548916 -0.773925 0.548916 -0.773925 0.393814 -0.773925 0.548916 -0.773925 0.393814 -0.801749 0.378609 -0.931612 0.378609 -0.801749 0.378609 -0.931612 0.378609 -0.801749 0.548916 -0.931612 0.548916 -0.801749 0.393814 -0.931612 0.393814 -0.0786245 0.556245 -0.0786245 0.438499 -0.181325 0.556245 -0.181325 0.438499 0.780658 0.535706 0.219342 0.535706 0.780658 0.201523 0.219342 0.201523 -0.0607139 0.556245 -0.0607139 0.438499 -0.0607139 0.556245 -0.0607139 0.438499 -0.199236 0.556245 -0.199236 0.438499 -0.199236 0.556245 -0.199236 0.438499 -0.181325 0.556245 -0.181325 0.438499 -0.0786245 0.556245 -0.0786245 0.438499 -0.0786245 0.417723 -0.0786245 0.417723 -0.181325 0.417723 -0.181325 0.417723 0.438687 1.15851 0.570964 1.15851 0.438687 1.15851 0.570964 1.15851 0.570964 1.13985 0.570964 1.03926 0.438687 1.13985 0.438687 1.03926 0.372561 1.03926 0.372561 1.03926 0.372561 1.13985 0.372561 1.13985 0.637089 1.13985 0.637089 1.03926 0.637089 1.13985 0.637089 1.03926 0.570964 1.02059 0.438687 1.02059 0.570964 1.02059 0.438687 1.02059 0.570964 1.13985 0.438687 1.13985 0.570964 1.03926 0.438687 1.03926 0.372561 1.03926 0.372561 1.13985 0.372561 1.03926 0.372561 1.13985 0.438687 1.13985 0.570964 1.13985 0.438687 1.03926 0.570964 1.03926 0.570964 1.02059 0.570964 1.02059 0.438687 1.02059 0.438687 1.02059 0.438687 1.15851 0.570964 1.15851 0.438687 1.15851 0.570964 1.15851 0.637089 1.13985 0.637089 1.03926 0.637089 1.13985 0.637089 1.03926 0.570964 1.13985 0.438687 1.13985 0.570964 1.03926 0.438687 1.03926 0.170566 1.06917 0.144894 1.06917 0.170566 1.04292 0.144894 1.04292 0.170566 1.1217 0.144894 1.1217 0.144894 1.14796 0.170566 1.14796 0.196238 1.14796 0.196238 1.1217 0.196238 1.06917 0.196238 1.04292 0.119221 1.06917 0.119221 1.1217 0.0935491 1.1217 0.0935491 1.06917 0.247583 1.1217 0.247583 1.06917 0.265782 1.1217 0.265782 1.06917 0.221911 1.1217 0.221911 1.06917 0.221911 1.04292 0.221911 1.14796 0.247583 1.04292 0.119221 1.04292 0.119221 1.14796 0.0935491 1.14796 0.144894 1.04292 0.170566 1.04292 0.144894 1.14796 0.170566 1.14796 0.196238 1.14796 0.196238 1.04292 0.119221 1.14796 0.221911 1.04292 0.221911 1.14796 0.119221 1.04292 0.0935491 1.14796 0.273256 1.04292 0.247583 1.04292 0.0935491 1.04292 0.0935491 1.04292 0.07535 1.1217 0.0678768 1.14796 0.07535 1.06917 0.0678768 1.04292 0.247583 1.14796 0.247583 1.14796 0.170566 1.05038 0.144898 1.05038 0.170566 1.14049 0.144898 1.14049 0.196234 1.14049 0.196234 1.05038 0.119227 1.05038 0.119227 1.14049 0.221905 1.14049 0.221905 1.05038 0.24757 1.14049 0.24757 1.05038 0.0935622 1.05038 0.0935622 1.14049 0.0672004 1.04423 0.0684468 1.04923 0.0543155 1.1217 0.0672004 1.14665 0.0543155 1.1217 0.0684468 1.14165 0.0543155 1.06917 0.0543155 1.06917 0.273256 1.14796 0.273932 1.14665 0.272686 1.14165 0.286817 1.06917 0.273932 1.04423 0.286817 1.06917 0.272686 1.04923 0.286817 1.1217 0.286817 1.1217 -0.17031 0.356617 -0.073341 0.356617 -0.17031 0.250229 -0.073341 0.250229 -0.073341 0.234162 -0.073341 0.234162 -0.17031 0.234162 -0.17031 0.234162 -0.191087 0.250229 -0.191087 0.356617 -0.191087 0.250229 -0.0525649 0.250229 -0.0525649 0.356617 -0.073341 0.372684 -0.17031 0.372684 -0.0525649 0.250229 -0.0525649 0.356617 -0.172028 0.250229 -0.0716238 0.250229 -0.073341 0.372684 -0.191087 0.356617 -0.17031 0.372684 0.148531 0.991047 0.148531 0.526473 0.859492 0.991047 0.859492 0.526473 -0.0716238 0.303423 -0.0716238 0.356617 -0.172028 0.303423 -0.172028 0.356617 1.93971 0.481768 1.93971 0.481768 1.93971 0.514457 1.93971 0.514457 1.92698 0.481768 1.85397 0.481768 1.92698 0.514457 1.85397 0.514457 1.92698 0.521461 1.92698 0.521461 1.85397 0.521461 1.85397 0.521461 1.85397 0.474764 1.85397 0.474764 1.92698 0.474764 1.92698 0.474764 1.84124 0.514457 1.84124 0.514457 1.84124 0.481768 1.84124 0.481768</float_array>
					<technique_common>
						<accessor source="#_0_TexCoord0_array_id" count="310" stride="2">
							<param name="S" type="float" />
							<param name="T" type="float" />
						</accessor>
					</technique_common>
				</source>
				<vertices id="_0_vtx_id">
					<input semantic="POSITION" source="#_0_Position_id" />
					<input semantic="NORMAL" source="#_0_Normal_id" />
				</vertices>
				<triangles material="Mdl_2_Mtl_dogMt" count="530">
					<input semantic="VERTEX" source="#_0_vtx_id" offset="0" />
					<input semantic="TEXCOORD" source="#_0_TexCoord0_id" offset="0" set="0" />
					<p>112 113 114 113 115 114 282 283 284 283 285 284 24 25 26 24 38 25 26 25 27 38 36 37 26 27 33 25 28 27 38 37 39 25 38 39 25 39 28 36 42 37 26 33 32 27 28 30 27 30 33 39 29 28 28 29 30 39 37 29 42 40 41 32 33 34 40 34 41 30 29 31 37 42 43 43 42 41 43 31 29 43 29 37 43 41 31 33 35 34 35 33 30 35 41 34 35 30 31 31 41 35 44 45 46 44 58 45 46 45 47 58 56 57 46 47 53 45 48 47 58 57 59 45 58 59 45 59 48 56 62 57 46 53 52 47 48 50 47 50 53 59 49 48 48 49 50 59 57 49 62 60 61 52 53 54 60 54 61 50 49 51 57 62 63 63 62 61 63 51 49 63 49 57 63 61 51 53 55 54 55 53 50 55 61 54 55 50 51 51 61 55 64 65 66 64 78 65 66 65 67 78 76 77 66 67 73 65 68 67 78 77 79 65 78 79 65 79 68 76 82 77 66 73 72 67 68 70 67 70 73 79 69 68 68 69 70 79 77 69 82 80 81 72 73 74 80 74 81 70 69 71 77 82 83 83 82 81 83 71 69 83 69 77 83 81 71 73 75 74 75 73 70 75 81 74 75 70 71 71 81 75 108 109 110 108 118 109 110 109 111 118 116 117 110 111 121 109 118 119 118 117 119 116 126 117 110 121 120 111 109 128 109 119 128 126 124 125 117 129 119 119 129 128 121 122 120 124 122 125 111 128 130 111 130 121 126 125 127 117 126 127 117 127 129 122 121 123 121 130 123 122 123 125 127 131 129 131 123 130 131 127 125 125 123 131 290 291 292 290 304 291 292 291 293 304 302 303 292 293 299 291 294 293 304 303 305 291 304 305 291 305 294 302 308 303 292 299 298 293 294 296 293 296 299 305 295 294 294 295 296 305 303 295 308 306 307 298 299 300 306 300 307 296 295 297 303 308 309 309 308 307 309 297 295 309 295 303 309 307 297 299 301 300 301 299 296 301 307 300 301 296 297 297 307 301 287 286 276 287 279 289 287 276 279 286 277 278 289 279 281 276 275 272 276 286 275 276 272 279 277 267 265 278 277 265 278 275 286 278 265 275 289 281 280 272 271 263 279 272 273 267 266 265 277 270 267 267 270 266 286 288 277 288 289 280 288 270 277 288 280 270 275 271 272 281 274 280 279 274 281 279 273 274 263 262 261 273 272 261 272 263 261 273 261 274 265 266 264 264 275 265 264 263 271 264 266 262 264 271 275 264 262 263 270 268 266 266 268 262 280 269 270 270 269 268 280 274 269 261 262 260 260 262 268 260 274 261 260 268 269 269 274 260 184 185 180 184 187 185 180 181 182 184 189 187 184 180 189 185 181 180 182 181 183 187 186 185 189 188 187 180 190 189 180 182 190 181 193 192 181 192 183 185 186 193 185 193 181 188 200 203 187 211 186 187 188 211 189 201 200 189 190 201 189 200 188 182 191 190 190 191 201 192 193 195 183 192 205 192 195 205 203 216 212 188 212 211 188 203 212 186 206 193 200 201 196 200 196 203 182 183 209 182 209 191 195 193 194 193 206 194 205 217 208 183 208 209 183 205 208 216 227 228 203 196 227 203 227 216 211 210 186 186 210 206 212 231 211 211 231 210 201 191 202 195 221 205 205 221 217 194 206 207 209 213 191 191 213 202 208 229 209 209 229 213 228 237 216 196 197 198 196 198 227 201 197 196 201 202 197 212 233 231 216 237 233 216 233 212 210 214 206 206 214 207 195 194 225 195 225 221 217 221 222 208 230 229 208 217 230 213 215 202 228 239 237 198 197 199 227 198 251 227 251 228 231 229 230 233 234 231 229 234 213 213 234 215 229 231 234 233 237 234 210 231 232 231 230 232 210 232 214 207 214 218 194 207 223 194 223 225 221 225 226 221 226 222 217 222 235 230 235 232 230 217 235 202 204 197 197 204 199 202 215 204 239 240 237 198 258 251 198 199 258 228 251 252 251 258 252 228 252 239 234 237 238 237 240 238 234 238 215 214 232 236 232 235 236 214 236 218 207 224 223 207 218 224 225 245 250 225 250 226 223 224 245 223 245 225 222 241 235 204 219 199 258 199 254 199 219 254 252 253 239 240 220 238 204 215 220 215 238 220 204 220 219 236 235 242 235 241 242 236 242 218 250 245 249 226 243 222 250 243 226 250 249 243 222 243 241 224 218 246 218 242 246 224 246 245 258 254 256 252 258 259 259 256 253 259 253 252 259 258 256 239 257 240 253 257 239 253 256 257 220 255 219 255 256 254 255 220 240 255 240 257 255 254 219 255 257 256 249 245 247 245 246 247 243 244 241 249 247 244 249 244 243 241 244 242 246 248 247 248 244 247 248 246 242 242 244 248 0 1 2 0 2 10 1 3 2 0 10 11 1 12 3 2 4 6 2 6 10 2 3 4 0 21 1 0 11 21 12 13 14 3 12 14 3 14 4 6 4 5 4 14 5 10 8 9 10 9 11 10 6 8 1 21 20 12 20 13 12 1 20 14 13 15 14 15 5 9 8 19 11 9 23 11 23 21 6 5 7 8 6 7 8 7 19 20 21 22 21 23 22 20 22 13 15 16 18 15 18 5 13 22 16 7 5 18 7 18 19 13 16 15 9 19 17 17 22 23 17 18 16 17 23 9 17 19 18 17 16 22 84 85 86 84 86 94 85 87 86 84 94 95 85 96 87 86 88 90 86 90 94 86 87 88 84 105 85 84 95 105 96 97 98 87 96 98 87 98 88 90 88 89 88 98 89 94 92 93 94 93 95 94 90 92 85 105 104 96 104 97 96 85 104 98 97 99 98 99 89 93 92 103 95 93 107 95 107 105 90 89 91 92 90 91 92 91 103 104 105 106 105 107 106 104 106 97 99 100 102 99 102 89 97 106 100 91 89 102 91 102 103 97 100 99 93 103 101 101 106 107 101 102 100 101 107 93 101 103 102 101 100 106 132 133 134 132 134 142 133 135 134 132 142 143 133 144 135 134 136 138 134 138 142 134 135 136 132 153 133 132 143 153 144 145 146 135 144 146 135 146 136 138 136 137 136 146 137 142 140 141 142 141 143 142 138 140 133 153 152 144 152 145 144 133 152 146 145 147 146 147 137 141 140 151 143 141 155 143 155 153 138 137 139 140 138 139 140 139 151 152 153 154 153 155 154 152 154 145 147 148 150 147 150 137 145 154 148 139 137 150 139 150 151 145 148 147 141 151 149 149 154 155 149 150 148 149 155 141 149 151 150 149 148 154 156 157 158 156 158 166 157 159 158 156 166 167 157 168 159 158 160 162 158 162 166 158 159 160 156 179 157 156 167 179 168 169 170 159 168 170 159 170 160 162 160 161 160 170 161 166 164 165 166 165 167 166 162 164 157 179 177 168 177 169 168 157 177 170 169 171 170 171 161 165 164 175 167 165 178 179 178 177 179 167 178 162 161 163 164 162 163 164 163 175 169 172 171 165 175 173 165 173 178 177 178 176 176 169 177 176 173 172 176 178 173 176 172 169 161 174 163 174 171 172 174 173 175 174 161 171 174 175 163 174 172 173</p>
				</triangles>
			</mesh>
		</geometry>
		<geometry id="_1_geo_id" name="">
			<mesh>
				<source id="_1_Position_id" name="_1_Position">
					<float_array id="_1_Position_array_id" count="12">1.67413 0.13069999 1.7462232 1.67413 0.13069999 -3.4493368 -1.67413 0.13069999 1.7462232 -1.67413 0.13069999 -3.4493368</float_array>
					<technique_common>
						<accessor source="#_1_Position_array_id" count="4" stride="3">
							<param name="X" type="float" />
							<param name="Y" type="float" />
							<param name="Z" type="float" />
						</accessor>
					</technique_common>
				</source>
				<source id="_1_TexCoord0_id" name="_1_TexCoord0">
					<float_array id="_1_TexCoord0_array_id" count="8">0 0 1 0 0 1 1 1</float_array>
					<technique_common>
						<accessor source="#_1_TexCoord0_array_id" count="4" stride="2">
							<param name="S" type="float" />
							<param name="T" type="float" />
						</accessor>
					</technique_common>
				</source>
				<source id="_1_Normal_id" name="_1_Normal">
					<float_array id="_1_Normal_array_id" count="12">0 1 0 0 1 0 0 1 0 0 1 0</float_array>
					<technique_common>
						<accessor source="#_1_Normal_array_id" count="4" stride="3">
							<param name="X" type="float" />
							<param name="Y" type="float" />
							<param name="Z" type="float" />
						</accessor>
					</technique_common>
				</source>
				<vertices id="_1_vtx_id">
					<input semantic="POSITION" source="#_1_Position_id" />
					<input semantic="NORMAL" source="#_1_Normal_id" />
				</vertices>
				<triangles material="Mdl_2_Mtl_sdwMt" count="2">
					<input semantic="VERTEX" source="#_1_vtx_id" offset="0" />
					<input semantic="TEXCOORD" source="#_1_TexCoord0_id" offset="0" set="0" />
					<p>0 1 2 2 1 3</p>
				</triangles>
			</mesh>
		</geometry>
	</library_geometries>
	<library_controllers>
		<controller id="_0_ctrl_id" name="_0_ctrl">
			<skin source="#_0_geo_id">
				<bind_shape_matrix>1 0 0 0 0 1 0 0 0 0 1 0 0 0 0 1</bind_shape_matrix>
				<source id="_0_ctrl_names_id" name="_0_ctrl_names">
					<Name_array id="_0_ctrl_names_array_id" count="15">dog_root dogPg sdwPg hip l_back_leg l_back_foot neck l_front_leg l_front_foot nose2 r_front_leg r_front_foot r_back_leg r_back_foot tail2</Name_array>
					<technique_common>
						<accessor source="#_0_ctrl_names_array_id" count="15" stride="1">
							<param name="JOINT" type="Name" />
						</accessor>
					</technique_common>
				</source>
				<source id="_0_ctrl_poses_id" name="_0_ctrl_poses">
					<float_array id="_0_ctrl_poses_array_id" count="240">1 -0 0 0 -0 1 -0 0 0 -0 1 0 0 0 0 1 1 -0 0 0.0157401 -0 1 -0 -1.73651 0 -0 1 0.79759 0 0 0 1 1 -0 0 0 -0 1 -0 -0.13069999 0 -0 1 0.85155684 0 0 0 1 1 -0 0 0 -0 1 -0 -1.99416 0 -0 1 2.34235 0 0 0 1 1 -0 0 -0.397337 -0 1 -0 -0.92605007 0 -0 1 2.3081706 0 0 0 1 1 -0 0 -0.397337 -0 1 -0 -0.13137507 0 -0 1 2.3167155 0 0 0 1 1 -0 0 0 -0 1 -0 -1.9685254 0 -0 1 0.69319 0 0 0 1 1 -0 0 -0.277709 -0 1 -0 -0.88332546 0 -0 1 0.76154906 0 0 0 1 1 -0 0 -0.277709 -0 1 -0 -0.17409945 0 -0 1 0.7530042 0 0 0 1 1 -0 0 0 -0 1 -0 -2.002705 0 -0 1 -0.70817006 0 0 0 1 1 -0 0 0.277709 -0 1 -0 -0.88332546 0 -0 1 0.76154906 0 0 0 1 1 -0 0 0.277709 -0 1 -0 -0.17409945 0 -0 1 0.7530042 0 0 0 1 1 -0 0 0.397337 -0 1 -0 -0.92605007 0 -0 1 2.3081706 0 0 0 1 1 -0 0 0.397337 -0 1 -0 -0.13137507 0 -0 1 2.3167155 0 0 0 1 1 -0 0 0 -0 1 -0 -1.9471104 0 -0 1 2.74396 0 0 0 1</float_array>
					<technique_common>
						<accessor source="#_0_ctrl_poses_array_id" count="15" stride="16">
							<param name="TRANSFORM" type="float4x4" />
						</accessor>
					</technique_common>
				</source>
				<source id="_0_ctrl_weights_id" name="_0_ctrl_weights">
					<float_array id="_0_ctrl_weights_array_id" count="1">1</float_array>
					<technique_common>
						<accessor source="#_0_ctrl_weights_array_id" count="1" stride="1">
							<param name="WEIGHT" type="float" />
						</accessor>
					</technique_common>
				</source>
				<joints>
					<input semantic="JOINT" source="#_0_ctrl_names_id" />
					<input semantic="INV_BIND_MATRIX" source="#_0_ctrl_poses_id" />
				</joints>
				<vertex_weights count="310">
					<input semantic="JOINT" source="#_0_ctrl_names_id" offset="0" />
					<input semantic="WEIGHT" source="#_0_ctrl_weights_id" offset="1" />
					<vcount>1 1 1 1 1 1 1 1 1 1 1 1 1 1 1 1 1 1 1 1 1 1 1 1 1 1 1 1 1 1 1 1 1 1 1 1 1 1 1 1 1 1 1 1 1 1 1 1 1 1 1 1 1 1 1 1 1 1 1 1 1 1 1 1 1 1 1 1 1 1 1 1 1 1 1 1 1 1 1 1 1 1 1 1 1 1 1 1 1 1 1 1 1 1 1 1 1 1 1 1 1 1 1 1 1 1 1 1 1 1 1 1 1 1 1 1 1 1 1 1 1 1 1 1 1 1 1 1 1 1 1 1 1 1 1 1 1 1 1 1 1 1 1 1 1 1 1 1 1 1 1 1 1 1 1 1 1 1 1 1 1 1 1 1 1 1 1 1 1 1 1 1 1 1 1 1 1 1 1 1 1 1 1 1 1 1 1 1 1 1 1 1 1 1 1 1 1 1 1 1 1 1 1 1 1 1 1 1 1 1 1 1 1 1 1 1 1 1 1 1 1 1 1 1 1 1 1 1 1 1 1 1 1 1 1 1 1 1 1 1 1 1 1 1 1 1 1 1 1 1 1 1 1 1 1 1 1 1 1 1 1 1 1 1 1 1 1 1 1 1 1 1 1 1 1 1 1 1 1 1 1 1 1 1 1 1 1 1 1 1 1 1 1 1 1 1 1 1 1 1 1 1 1 1 1 1 1 1 1 1</vcount>
					<v>14 0 14 0 14 0 14 0 14 0 14 0 14 0 14 0 14 0 14 0 14 0 14 0 14 0 14 0 14 0 14 0 14 0 14 0 14 0 14 0 14 0 14 0 14 0 14 0 4 0 4 0 4 0 4 0 4 0 4 0 4 0 4 0 4 0 4 0 4 0 4 0 4 0 4 0 4 0 4 0 4 0 4 0 4 0 4 0 10 0 10 0 10 0 10 0 10 0 10 0 10 0 10 0 10 0 10 0 10 0 10 0 10 0 10 0 10 0 10 0 10 0 10 0 10 0 10 0 7 0 7 0 7 0 7 0 7 0 7 0 7 0 7 0 7 0 7 0 7 0 7 0 7 0 7 0 7 0 7 0 7 0 7 0 7 0 7 0 3 0 3 0 3 0 3 0 3 0 3 0 3 0 3 0 3 0 3 0 3 0 3 0 3 0 3 0 3 0 3 0 3 0 3 0 3 0 3 0 3 0 3 0 3 0 3 0 9 0 9 0 9 0 9 0 9 0 9 0 9 0 9 0 9 0 9 0 9 0 9 0 9 0 9 0 9 0 9 0 9 0 9 0 9 0 9 0 9 0 9 0 9 0 9 0 9 0 9 0 9 0 9 0 9 0 9 0 9 0 9 0 9 0 9 0 9 0 9 0 9 0 9 0 9 0 9 0 9 0 9 0 9 0 9 0 9 0 9 0 9 0 9 0 9 0 9 0 9 0 9 0 9 0 9 0 9 0 9 0 9 0 9 0 9 0 9 0 9 0 9 0 9 0 9 0 9 0 9 0 9 0 9 0 9 0 9 0 9 0 9 0 9 0 9 0 9 0 9 0 9 0 9 0 9 0 9 0 9 0 9 0 9 0 9 0 9 0 9 0 9 0 9 0 9 0 9 0 9 0 9 0 9 0 9 0 9 0 9 0 9 0 9 0 9 0 9 0 9 0 9 0 9 0 9 0 9 0 9 0 9 0 9 0 9 0 9 0 9 0 9 0 9 0 9 0 9 0 9 0 9 0 9 0 9 0 9 0 9 0 9 0 9 0 9 0 9 0 9 0 9 0 9 0 9 0 9 0 9 0 9 0 9 0 9 0 9 0 9 0 9 0 9 0 9 0 9 0 9 0 9 0 9 0 9 0 9 0 9 0 9 0 9 0 9 0 9 0 9 0 9 0 9 0 9 0 9 0 9 0 9 0 9 0 9 0 9 0 9 0 9 0 9 0 9 0 9 0 9 0 9 0 9 0 9 0 9 0 9 0 9 0 9 0 9 0 9 0 9 0 9 0 9 0 9 0 9 0 9 0 9 0 12 0 12 0 12 0 12 0 12 0 12 0 12 0 12 0 12 0 12 0 12 0 12 0 12 0 12 0 12 0 12 0 12 0 12 0 12 0 12 0</v>
				</vertex_weights>
			</skin>
		</controller>
		<controller id="_1_ctrl_id" name="_1_ctrl">
			<skin source="#_1_geo_id">
				<bind_shape_matrix>1 0 0 0 0 1 0 0 0 0 1 0 0 0 0 1</bind_shape_matrix>
				<source id="_1_ctrl_names_id" name="_1_ctrl_names">
					<Name_array id="_1_ctrl_names_array_id" count="15">dog_root dogPg sdwPg hip l_back_leg l_back_foot neck l_front_leg l_front_foot nose2 r_front_leg r_front_foot r_back_leg r_back_foot tail2</Name_array>
					<technique_common>
						<accessor source="#_1_ctrl_names_array_id" count="15" stride="1">
							<param name="JOINT" type="Name" />
						</accessor>
					</technique_common>
				</source>
				<source id="_1_ctrl_poses_id" name="_1_ctrl_poses">
					<float_array id="_1_ctrl_poses_array_id" count="240">1 -0 0 0 -0 1 -0 0 0 -0 1 0 0 0 0 1 1 -0 0 0.0157401 -0 1 -0 -1.73651 0 -0 1 0.79759 0 0 0 1 1 -0 0 0 -0 1 -0 -0.13069999 0 -0 1 0.85155684 0 0 0 1 1 -0 0 0 -0 1 -0 -1.99416 0 -0 1 2.34235 0 0 0 1 1 -0 0 -0.397337 -0 1 -0 -0.92605007 0 -0 1 2.3081706 0 0 0 1 1 -0 0 -0.397337 -0 1 -0 -0.13137507 0 -0 1 2.3167155 0 0 0 1 1 -0 0 0 -0 1 -0 -1.9685254 0 -0 1 0.69319 0 0 0 1 1 -0 0 -0.277709 -0 1 -0 -0.88332546 0 -0 1 0.76154906 0 0 0 1 1 -0 0 -0.277709 -0 1 -0 -0.17409945 0 -0 1 0.7530042 0 0 0 1 1 -0 0 0 -0 1 -0 -2.002705 0 -0 1 -0.70817006 0 0 0 1 1 -0 0 0.277709 -0 1 -0 -0.88332546 0 -0 1 0.76154906 0 0 0 1 1 -0 0 0.277709 -0 1 -0 -0.17409945 0 -0 1 0.7530042 0 0 0 1 1 -0 0 0.397337 -0 1 -0 -0.92605007 0 -0 1 2.3081706 0 0 0 1 1 -0 0 0.397337 -0 1 -0 -0.13137507 0 -0 1 2.3167155 0 0 0 1 1 -0 0 0 -0 1 -0 -1.9471104 0 -0 1 2.74396 0 0 0 1</float_array>
					<technique_common>
						<accessor source="#_1_ctrl_poses_array_id" count="15" stride="16">
							<param name="TRANSFORM" type="float4x4" />
						</accessor>
					</technique_common>
				</source>
				<source id="_1_ctrl_weights_id" name="_1_ctrl_weights">
					<float_array id="_1_ctrl_weights_array_id" count="1">1</float_array>
					<technique_common>
						<accessor source="#_1_ctrl_weights_array_id" count="1" stride="1">
							<param name="WEIGHT" type="float" />
						</accessor>
					</technique_common>
				</source>
				<joints>
					<input semantic="JOINT" source="#_1_ctrl_names_id" />
					<input semantic="INV_BIND_MATRIX" source="#_1_ctrl_poses_id" />
				</joints>
				<vertex_weights count="4">
					<input semantic="JOINT" source="#_1_ctrl_names_id" offset="0" />
					<input semantic="WEIGHT" source="#_1_ctrl_weights_id" offset="1" />
					<vcount>1 1 1 1</vcount>
					<v>2 0 2 0 2 0 2 0</v>
				</vertex_weights>
			</skin>
		</controller>
	</library_controllers>
	<library_visual_scenes>
		<visual_scene id="dog_model_02_id" name="dog_model_02">
			<node id="dog_root_bone_id" name="dog_root" sid="dog_root" type="JOINT">
				<translate sid="translate">0 0 0</translate>
				<rotate sid="rotateZ">0 0 1 0</rotate>
				<rotate sid="rotateY">0 1 0 0</rotate>
				<rotate sid="rotateX">1 0 0 0</rotate>
				<scale sid="scale">1 1 1</scale>
				<node id="dogPg_bone_id" name="dogPg" sid="dogPg" type="JOINT">
					<translate sid="translate">-0.0157401 1.73651 -0.79759</translate>
					<rotate sid="rotateZ">0 0 1 0</rotate>
					<rotate sid="rotateY">0 1 0 0</rotate>
					<rotate sid="rotateX">1 0 0 0</rotate>
					<scale sid="scale">1 1 1</scale>
					<node id="sdwPg_bone_id" name="sdwPg" sid="sdwPg" type="JOINT">
						<translate sid="translate">0.0157401 -1.60581 -0.0539668</translate>
						<rotate sid="rotateZ">0 0 1 0</rotate>
						<rotate sid="rotateY">0 1 0 0</rotate>
						<rotate sid="rotateX">1 0 0 0</rotate>
						<scale sid="scale">1 1 1</scale>
					</node>
				</node>
				<node id="hip_bone_id" name="hip" sid="hip" type="JOINT">
					<translate sid="translate">0 1.99416 -2.34235</translate>
					<rotate sid="rotateZ">0 0 1 0</rotate>
					<rotate sid="rotateY">0 1 0 0</rotate>
					<rotate sid="rotateX">1 0 0 0</rotate>
					<scale sid="scale">1 1 1</scale>
					<node id="l_back_leg_bone_id" name="l_back_leg" sid="l_back_leg" type="JOINT">
						<translate sid="translate">0.397337 -1.06811 0.0341795</translate>
						<rotate sid="rotateZ">0 0 1 0</rotate>
						<rotate sid="rotateY">0 1 0 0</rotate>
						<rotate sid="rotateX">1 0 0 0</rotate>
						<scale sid="scale">1 1 1</scale>
						<node id="l_back_foot_bone_id" name="l_back_foot" sid="l_back_foot" type="JOINT">
							<translate sid="translate">0 -0.794675 -0.00854489</translate>
							<rotate sid="rotateZ">0 0 1 0</rotate>
							<rotate sid="rotateY">0 1 0 0</rotate>
							<rotate sid="rotateX">1 0 0 0</rotate>
							<scale sid="scale">1 1 1</scale>
						</node>
					</node>
					<node id="neck_bone_id" name="neck" sid="neck" type="JOINT">
						<translate sid="translate">0 -0.0256346 1.64916</translate>
						<rotate sid="rotateZ">0 0 1 0</rotate>
						<rotate sid="rotateY">0 1 0 0</rotate>
						<rotate sid="rotateX">1 0 0 0</rotate>
						<scale sid="scale">1 1 1</scale>
						<node id="l_front_leg_bone_id" name="l_front_leg" sid="l_front_leg" type="JOINT">
							<translate sid="translate">0.277709 -1.0852 -0.0683591</translate>
							<rotate sid="rotateZ">0 0 1 0</rotate>
							<rotate sid="rotateY">0 1 0 0</rotate>
							<rotate sid="rotateX">1 0 0 0</rotate>
							<scale sid="scale">1 1 1</scale>
							<node id="l_front_foot_bone_id" name="l_front_foot" sid="l_front_foot" type="JOINT">
								<translate sid="translate">0 -0.709226 0.00854489</translate>
								<rotate sid="rotateZ">0 0 1 0</rotate>
								<rotate sid="rotateY">0 1 0 0</rotate>
								<rotate sid="rotateX">1 0 0 0</rotate>
								<scale sid="scale">1 1 1</scale>
							</node>
						</node>
						<node id="nose2_bone_id" name="nose2" sid="nose2" type="JOINT">
							<translate sid="translate">0 0.0341796 1.40136</translate>
							<rotate sid="rotateZ">0 0 1 0</rotate>
							<rotate sid="rotateY">0 1 0 0</rotate>
							<rotate sid="rotateX">1 0 0 0</rotate>
							<scale sid="scale">1 1 1</scale>
						</node>
						<node id="r_front_leg_bone_id" name="r_front_leg" sid="r_front_leg" type="JOINT">
							<translate sid="translate">-0.277709 -1.0852 -0.0683591</translate>
							<rotate sid="rotateZ">0 0 1 0</rotate>
							<rotate sid="rotateY">0 1 0 0</rotate>
							<rotate sid="rotateX">1 0 0 0</rotate>
							<scale sid="scale">1 1 1</scale>
							<node id="r_front_foot_bone_id" name="r_front_foot" sid="r_front_foot" type="JOINT">
								<translate sid="translate">0 -0.709226 0.00854489</translate>
								<rotate sid="rotateZ">0 0 1 0</rotate>
								<rotate sid="rotateY">0 1 0 0</rotate>
								<rotate sid="rotateX">1 0 0 0</rotate>
								<scale sid="scale">1 1 1</scale>
							</node>
						</node>
					</node>
					<node id="r_back_leg_bone_id" name="r_back_leg" sid="r_back_leg" type="JOINT">
						<translate sid="translate">-0.397337 -1.06811 0.0341795</translate>
						<rotate sid="rotateZ">0 0 1 0</rotate>
						<rotate sid="rotateY">0 1 0 0</rotate>
						<rotate sid="rotateX">1 0 0 0</rotate>
						<scale sid="scale">1 1 1</scale>
						<node id="r_back_foot_bone_id" name="r_back_foot" sid="r_back_foot" type="JOINT">
							<translate sid="translate">0 -0.794675 -0.00854489</translate>
							<rotate sid="rotateZ">0 0 1 0</rotate>
							<rotate sid="rotateY">0 1 0 0</rotate>
							<rotate sid="rotateX">1 0 0 0</rotate>
							<scale sid="scale">1 1 1</scale>
						</node>
					</node>
					<node id="tail2_bone_id" name="tail2" sid="tail2" type="JOINT">
						<translate sid="translate">0 -0.0470497 -0.40161</translate>
						<rotate sid="rotateZ">0 0 1 0</rotate>
						<rotate sid="rotateY">0 1 0 0</rotate>
						<rotate sid="rotateX">1 0 0 0</rotate>
						<scale sid="scale">1 1 1</scale>
					</node>
				</node>
			</node>
			<node id="_id" name="" type="NODE">
				<matrix>1 0 0 0 0 1 0 0 0 0 1 0 0 0 0 1</matrix>
				<instance_controller url="#_0_ctrl_id">
					<skeleton>#dog_root_bone_id</skeleton>
					<bind_material>
						<technique_common>
							<instance_material symbol="Mdl_2_Mtl_dogMt" target="#dogMt_id" />
						</technique_common>
					</bind_material>
				</instance_controller>
			</node>
			<node id="_id" name="" type="NODE">
				<matrix>1 0 0 0 0 1 0 0 0 0 1 0 0 0 0 1</matrix>
				<instance_controller url="#_1_ctrl_id">
					<skeleton>#dog_root_bone_id</skeleton>
					<bind_material>
						<technique_common>
							<instance_material symbol="Mdl_2_Mtl_sdwMt" target="#sdwMt_id" />
						</technique_common>
					</bind_material>
				</instance_controller>
			</node>
		</visual_scene>
	</library_visual_scenes>
	<scene>
		<instance_visual_scene url="#dog_model_02_id" />
	</scene>
</COLLADA>