﻿<?xml version="1.0" encoding="utf-8"?>
<COLLADA xmlns:xsi="http://www.w3.org/2001/XMLSchema-instance" xmlns:xsd="http://www.w3.org/2001/XMLSchema" version="1.4.1" xmlns="http://www.collada.org/2005/11/COLLADASchema">
	<asset>
		<created>2024-02-25T16:09:58.2950751-06:00</created>
		<modified>2024-02-25T16:09:58.2950798-06:00</modified>
	</asset>
	<library_images>
		<image id="airboy_board">
			<init_from>./airboy_board.png</init_from>
		</image>
		<image id="airboy_body">
			<init_from>./airboy_body.png</init_from>
		</image>
		<image id="airboy_face.0">
			<init_from>./airboy_face.0.png</init_from>
		</image>
		<image id="airboy_face.1">
			<init_from>./airboy_face.1.png</init_from>
		</image>
		<image id="airboy_face.2">
			<init_from>./airboy_face.2.png</init_from>
		</image>
		<image id="airboy_shadow">
			<init_from>./airboy_shadow.png</init_from>
		</image>
		<image id="block_shadow">
			<init_from>./block_shadow.png</init_from>
		</image>
		<image id="dog">
			<init_from>./dog.png</init_from>
		</image>
		<image id="dog_sdw">
			<init_from>./dog_sdw.png</init_from>
		</image>
		<image id="floor">
			<init_from>./floor.png</init_from>
		</image>
		<image id="metal_env">
			<init_from>./metal_env.png</init_from>
		</image>
		<image id="mother_ship">
			<init_from>./mother_ship.png</init_from>
		</image>
		<image id="wall_body">
			<init_from>./wall_body.png</init_from>
		</image>
		<image id="cloud01">
			<init_from>./cloud01.png</init_from>
		</image>
	</library_images>
	<library_materials>
		<material id="blockMt_id" name="blockMt">
			<instance_effect url="#blockMt_eff_id" />
		</material>
		<material id="sdwMt_id" name="sdwMt">
			<instance_effect url="#sdwMt_eff_id" />
		</material>
	</library_materials>
	<library_effects>
		<effect id="blockMt_eff_id" name="blockMt_eff">
			<profile_COMMON>
				<newparam sid="blockMt_surf">
					<surface type="2D">
						<init_from>wall_body</init_from>
						<format>PNG</format>
					</surface>
				</newparam>
				<newparam sid="blockMt_samp">
					<sampler2D>
						<source>blockMt_surf</source>
						<wrap_s>WRAP</wrap_s>
						<wrap_t>WRAP</wrap_t>
						<minfilter>LINEAR_MIPMAP_NEAREST</minfilter>
						<magfilter>LINEAR</magfilter>
						<mipfilter>LINEAR</mipfilter>
					</sampler2D>
				</newparam>
				<technique sid="blockMt_tech">
					<phong>
						<diffuse>
							<texture texture="blockMt_samp" texcoord="uv" />
						</diffuse>
					</phong>
				</technique>
			</profile_COMMON>
		</effect>
		<effect id="sdwMt_eff_id" name="sdwMt_eff">
			<profile_COMMON>
				<newparam sid="sdwMt_surf">
					<surface type="2D">
						<init_from>block_shadow</init_from>
						<format>PNG</format>
					</surface>
				</newparam>
				<newparam sid="sdwMt_samp">
					<sampler2D>
						<source>sdwMt_surf</source>
						<wrap_s>WRAP</wrap_s>
						<wrap_t>WRAP</wrap_t>
						<minfilter>LINEAR_MIPMAP_NEAREST</minfilter>
						<magfilter>LINEAR</magfilter>
						<mipfilter>LINEAR</mipfilter>
					</sampler2D>
				</newparam>
				<technique sid="sdwMt_tech">
					<phong>
						<diffuse>
							<texture texture="sdwMt_samp" texcoord="uv" />
						</diffuse>
					</phong>
				</technique>
			</profile_COMMON>
		</effect>
	</library_effects>
	<library_geometries>
		<geometry id="_0_geo_id" name="">
			<mesh>
				<source id="_0_Position_id" name="_0_Position">
					<float_array id="_0_Position_array_id" count="1134">-0.40001 2.143075 1.13232 0.40001 2.143075 1.13232 -0.40001 2.143075 1.93234 0.40001 2.143075 1.93234 0.40001 2.243065 2.03233 0.40001 3.36188 2.03233 -0.40001 2.243065 2.03233 -0.40001 3.36188 2.03233 -0.5 3.36188 1.93234 -0.5 3.36188 1.13232 -0.5 2.243065 1.93234 -0.5 2.243065 1.13232 0.5 2.243065 1.13232 0.5 3.36188 1.13232 0.5 2.243065 1.93234 0.5 3.36188 1.93234 0.40001 3.46187 1.93234 0.40001 3.46187 1.13232 -0.40001 3.46187 1.93234 -0.40001 3.46187 1.13232 0.40001 3.36188 1.03233 0.40001 2.243065 1.03233 -0.40001 3.36188 1.03233 -0.40001 2.243065 1.03233 -0.40001 2.143075 1.93234 -0.5 2.243065 1.93234 -0.40001 2.143075 1.13232 -0.5 2.243065 1.13232 -0.40001 2.243065 2.03233 -0.40001 2.143075 1.93234 0.40001 2.243065 2.03233 0.40001 2.143075 1.93234 -0.5 2.243065 1.93234 -0.40001 2.243065 2.03233 -0.5 3.36188 1.93234 -0.40001 3.36188 2.03233 0.5 2.243065 1.93234 0.40001 2.143075 1.93234 0.5 2.243065 1.13232 0.40001 2.143075 1.13232 0.40001 2.243065 2.03233 0.5 2.243065 1.93234 0.40001 3.36188 2.03233 0.5 3.36188 1.93234 -0.5 3.36188 1.93234 -0.40001 3.46187 1.93234 -0.5 3.36188 1.13232 -0.40001 3.46187 1.13232 -0.40001 3.46187 1.93234 -0.40001 3.36188 2.03233 0.40001 3.46187 1.93234 0.40001 3.36188 2.03233 0.40001 3.46187 1.93234 0.5 3.36188 1.93234 0.40001 3.46187 1.13232 0.5 3.36188 1.13232 -0.5 3.36188 1.13232 -0.40001 3.36188 1.03233 -0.5 2.243065 1.13232 -0.40001 2.243065 1.03233 -0.40001 3.36188 1.03233 -0.40001 3.46187 1.13232 0.40001 3.36188 1.03233 0.40001 3.46187 1.13232 0.40001 3.36188 1.03233 0.5 3.36188 1.13232 0.40001 2.243065 1.03233 0.5 2.243065 1.13232 -0.40001 2.143075 1.13232 -0.40001 2.243065 1.03233 0.40001 2.143075 1.13232 0.40001 2.243065 1.03233 -0.5 2.243065 1.93234 -0.40001 2.143075 1.93234 -0.40001 2.243065 2.03233 0.40001 2.143075 1.93234 0.5 2.243065 1.93234 0.40001 2.243065 2.03233 -0.40001 3.46187 1.93234 -0.5 3.36188 1.93234 -0.40001 3.36188 2.03233 0.5 3.36188 1.93234 0.40001 3.46187 1.93234 0.40001 3.36188 2.03233 -0.40001 3.36188 1.03233 -0.5 3.36188 1.13232 -0.40001 3.46187 1.13232 0.5 3.36188 1.13232 0.40001 3.36188 1.03233 0.40001 3.46187 1.13232 -0.40001 2.143075 1.13232 -0.5 2.243065 1.13232 -0.40001 2.243065 1.03233 0.5 2.243065 1.13232 0.40001 2.143075 1.13232 0.40001 2.243065 1.03233 -0.436157 1.311202 -2.103827 0.436157 1.311202 -2.103827 -0.436157 1.311202 -1.231513 0.436157 1.311202 -1.231513 0.436157 1.375044 -1.16767 0.436157 2.640167 -1.16767 -0.436157 1.375044 -1.16767 -0.436157 2.640167 -1.16767 -0.5 3.2696 -2.103827 -0.5 1.375044 -2.103827 -0.5 2.67041 -1.231513 -0.5 1.375044 -1.231513 0.5 3.2696 -2.103827 0.5 2.67041 -1.231513 0.5 1.375044 -2.103827 0.5 1.375044 -1.231513 0.436157 2.740157 -1.220294 0.436157 3.354758 -2.115046 -0.436157 2.740157 -1.220294 -0.436157 3.354758 -2.115046 0.436157 3.327062 -2.16767 0.436157 1.375044 -2.16767 -0.436157 3.327062 -2.16767 -0.436157 1.375044 -2.16767 -0.436157 1.311202 -1.231513 -0.5 1.375044 -1.231513 -0.436157 1.311202 -2.103827 -0.5 1.375044 -2.103827 -0.436157 1.375044 -1.16767 -0.436157 1.311202 -1.231513 0.436157 1.375044 -1.16767 0.436157 1.311202 -1.231513 -0.436157 1.375044 -1.16767 -0.436157 2.640167 -1.16767 -0.5 1.375044 -1.231513 -0.5 2.67041 -1.231513 0.5 1.375044 -1.231513 0.436157 1.311202 -1.231513 0.5 1.375044 -2.103827 0.436157 1.311202 -2.103827 0.436157 1.375044 -1.16767 0.5 1.375044 -1.231513 0.436157 2.640167 -1.16767 0.5 2.67041 -1.231513 -0.5 2.67041 -1.231513 -0.436157 2.740157 -1.220294 -0.5 3.2696 -2.103827 -0.436157 3.354758 -2.115046 -0.436157 2.740157 -1.220294 0.436157 2.740157 -1.220294 0.5 2.67041 -1.231513 0.5 3.2696 -2.103827 0.436157 2.740157 -1.220294 0.436157 3.354758 -2.115046 -0.436157 3.327062 -2.16767 -0.436157 1.375044 -2.16767 -0.5 3.2696 -2.103827 -0.5 1.375044 -2.103827 -0.436157 3.327062 -2.16767 -0.436157 3.354758 -2.115046 0.436157 3.327062 -2.16767 0.436157 3.354758 -2.115046 0.436157 3.327062 -2.16767 0.5 3.2696 -2.103827 0.436157 1.375044 -2.16767 0.5 1.375044 -2.103827 -0.436157 1.311202 -2.103827 -0.436157 1.375044 -2.16767 0.436157 1.311202 -2.103827 0.436157 1.375044 -2.16767 -0.5 1.375044 -1.231513 -0.436157 1.311202 -1.231513 -0.436157 1.375044 -1.16767 0.436157 1.311202 -1.231513 0.5 1.375044 -1.231513 0.436157 1.375044 -1.16767 -0.436157 2.740157 -1.220294 0.436157 2.740157 -1.220294 -0.436157 3.327062 -2.16767 -0.5 3.2696 -2.103827 -0.436157 3.354758 -2.115046 0.5 3.2696 -2.103827 0.436157 3.327062 -2.16767 0.436157 3.354758 -2.115046 -0.436157 1.311202 -2.103827 -0.5 1.375044 -2.103827 -0.436157 1.375044 -2.16767 0.5 1.375044 -2.103827 0.436157 1.311202 -2.103827 0.436157 1.375044 -2.16767 -0.4477512 1.193539 -2.091289 0.4477512 1.193539 -2.091289 -0.4477512 0.1116645 -2.091293 0.4477512 0.1116645 -2.091293 0.4477512 -0.0002596893 -1.97937 0.4477512 -0.0002740635 1.991419 -0.4477512 -0.0002596893 -1.97937 -0.4477512 -0.0002740635 1.991419 -0.559675 0.1116497 1.991419 -0.559675 1.193524 1.991423 -0.559675 0.1116641 -1.979369 -0.559675 1.193538 -1.979365 0.559675 1.193538 -1.979365 0.559675 1.193524 1.991423 0.559675 0.1116641 -1.979369 0.559675 0.1116497 1.991419 0.4477512 0.1116493 2.103343 0.4477512 1.193523 2.103347 -0.4477512 0.1116493 2.103343 -0.4477512 1.193523 2.103347 0.4477512 1.305448 1.991423 0.4477512 1.305462 -1.979365 -0.4477512 1.305448 1.991423 -0.4477512 1.305462 -1.979365 -0.4477512 0.1116645 -2.091293 -0.559675 0.1116641 -1.979369 -0.4477512 1.193539 -2.091289 -0.559675 1.193538 -1.979365 -0.4477512 -0.0002596893 -1.97937 -0.4477512 0.1116645 -2.091293 0.4477512 -0.0002596893 -1.97937 0.4477512 0.1116645 -2.091293 -0.559675 0.1116641 -1.979369 -0.4477512 -0.0002596893 -1.97937 -0.559675 0.1116497 1.991419 -0.4477512 -0.0002740635 1.991419 0.559675 0.1116641 -1.979369 0.4477512 0.1116645 -2.091293 0.559675 1.193538 -1.979365 0.4477512 1.193539 -2.091289 0.4477512 -0.0002596893 -1.97937 0.559675 0.1116641 -1.979369 0.4477512 -0.0002740635 1.991419 0.559675 0.1116497 1.991419 -0.559675 0.1116497 1.991419 -0.4477512 0.1116493 2.103343 -0.559675 1.193524 1.991423 -0.4477512 1.193523 2.103347 -0.4477512 0.1116493 2.103343 -0.4477512 -0.0002740635 1.991419 0.4477512 0.1116493 2.103343 0.4477512 -0.0002740635 1.991419 0.4477512 0.1116493 2.103343 0.559675 0.1116497 1.991419 0.4477512 1.193523 2.103347 0.559675 1.193524 1.991423 -0.559675 1.193524 1.991423 -0.4477512 1.305448 1.991423 -0.559675 1.193538 -1.979365 -0.4477512 1.305462 -1.979365 -0.4477512 1.305448 1.991423 -0.4477512 1.193523 2.103347 0.4477512 1.305448 1.991423 0.4477512 1.193523 2.103347 0.4477512 1.305448 1.991423 0.559675 1.193524 1.991423 0.4477512 1.305462 -1.979365 0.559675 1.193538 -1.979365 -0.4477512 1.193539 -2.091289 -0.4477512 1.305462 -1.979365 0.4477512 1.193539 -2.091289 0.4477512 1.305462 -1.979365 -0.559675 0.1116641 -1.979369 -0.4477512 0.1116645 -2.091293 -0.4477512 -0.0002596893 -1.97937 0.4477512 0.1116645 -2.091293 0.559675 0.1116641 -1.979369 0.4477512 -0.0002596893 -1.97937 -0.4477512 0.1116493 2.103343 -0.559675 0.1116497 1.991419 -0.4477512 -0.0002740635 1.991419 0.559675 0.1116497 1.991419 0.4477512 0.1116493 2.103343 0.4477512 -0.0002740635 1.991419 -0.4477512 1.305448 1.991423 -0.559675 1.193524 1.991423 -0.4477512 1.193523 2.103347 0.559675 1.193524 1.991423 0.4477512 1.305448 1.991423 0.4477512 1.193523 2.103347 -0.4477512 1.193539 -2.091289 -0.559675 1.193538 -1.979365 -0.4477512 1.305462 -1.979365 0.559675 1.193538 -1.979365 0.4477512 1.193539 -2.091289 0.4477512 1.305462 -1.979365 -0.419823 2.058929 1.088182 0.419823 2.058929 1.088182 -0.419823 1.417431 1.08818 0.419823 1.417431 1.08818 0.419823 1.337254 1.168357 0.419823 1.337247 2.954093 -0.419823 1.337254 1.168357 -0.419823 1.337247 2.954093 -0.5 1.417424 2.954094 -0.5 2.058923 2.954096 -0.5 1.417431 1.168357 -0.5 2.058929 1.16836 0.5 2.058929 1.16836 0.5 2.058923 2.954096 0.5 1.417431 1.168357 0.5 1.417424 2.954094 0.419823 1.417424 3.034272 0.419823 2.058922 3.034274 -0.419823 1.417424 3.034272 -0.419823 2.058922 3.034274 0.419823 2.139099 2.954097 0.419823 2.139106 1.16836 -0.419823 2.139099 2.954097 -0.419823 2.139106 1.16836 -0.419823 1.417431 1.08818 -0.5 1.417431 1.168357 -0.419823 2.058929 1.088182 -0.5 2.058929 1.16836 -0.419823 1.337254 1.168357 -0.419823 1.417431 1.08818 0.419823 1.337254 1.168357 0.419823 1.417431 1.08818 -0.5 1.417431 1.168357 -0.419823 1.337254 1.168357 -0.5 1.417424 2.954094 -0.419823 1.337247 2.954093 0.5 1.417431 1.168357 0.419823 1.417431 1.08818 0.5 2.058929 1.16836 0.419823 2.058929 1.088182 0.419823 1.337254 1.168357 0.5 1.417431 1.168357 0.419823 1.337247 2.954093 0.5 1.417424 2.954094 -0.5 1.417424 2.954094 -0.419823 1.417424 3.034272 -0.5 2.058923 2.954096 -0.419823 2.058922 3.034274 -0.419823 1.417424 3.034272 -0.419823 1.337247 2.954093 0.419823 1.417424 3.034272 0.419823 1.337247 2.954093 0.419823 1.417424 3.034272 0.5 1.417424 2.954094 0.419823 2.058922 3.034274 0.5 2.058923 2.954096 -0.5 2.058923 2.954096 -0.419823 2.139099 2.954097 -0.5 2.058929 1.16836 -0.419823 2.139106 1.16836 -0.419823 2.139099 2.954097 -0.419823 2.058922 3.034274 0.419823 2.139099 2.954097 0.419823 2.058922 3.034274 0.419823 2.139099 2.954097 0.5 2.058923 2.954096 0.419823 2.139106 1.16836 0.5 2.058929 1.16836 -0.419823 2.058929 1.088182 -0.419823 2.139106 1.16836 0.419823 2.058929 1.088182 0.419823 2.139106 1.16836 -0.5 1.417431 1.168357 -0.419823 1.417431 1.08818 -0.419823 1.337254 1.168357 0.419823 1.417431 1.08818 0.5 1.417431 1.168357 0.419823 1.337254 1.168357 -0.419823 1.417424 3.034272 -0.5 1.417424 2.954094 -0.419823 1.337247 2.954093 0.5 1.417424 2.954094 0.419823 1.417424 3.034272 0.419823 1.337247 2.954093 -0.419823 2.139099 2.954097 -0.5 2.058923 2.954096 -0.419823 2.058922 3.034274 0.5 2.058923 2.954096 0.419823 2.139099 2.954097 0.419823 2.058922 3.034274 -0.419823 2.058929 1.088182 -0.5 2.058929 1.16836 -0.419823 2.139106 1.16836 0.5 2.058929 1.16836 0.419823 2.058929 1.088182 0.419823 2.139106 1.16836</float_array>
					<technique_common>
						<accessor source="#_0_Position_array_id" count="378" stride="3">
							<param name="X" type="float" />
							<param name="Y" type="float" />
							<param name="Z" type="float" />
						</accessor>
					</technique_common>
				</source>
				<source id="_0_Normal_id" name="_0_Normal">
					<float_array id="_0_Normal_array_id" count="1134">0 -1 0 0 -1 0 0 -1 0 0 -1 0 0 0 1 0 0 1 0 0 1 0 0 1 -1 0 0 -1 0 0 -1 0 0 -1 0 0 1 0 0 1 0 0 1 0 0 1 0 0 0 1 0 0 1 0 0 1 0 0 1 0 0 0 -1 0 0 -1 0 0 -1 0 0 -1 -0.70710564 -0.70710796 0 -0.70710564 -0.70710796 0 -0.70710564 -0.70710796 0 -0.70710564 -0.70710796 0 0 -0.7071065 0.7071072 0 -0.7071065 0.7071072 0 -0.7071065 0.7071072 0 -0.7071065 0.7071072 -0.70710635 0 0.70710737 -0.70710635 0 0.70710737 -0.70710635 0 0.70710737 -0.70710635 0 0.70710737 0.70710564 -0.70710796 0 0.70710564 -0.70710796 0 0.70710564 -0.70710796 0 0.70710564 -0.70710796 0 0.70710635 0 0.70710737 0.70710635 0 0.70710737 0.70710635 0 0.70710737 0.70710635 0 0.70710737 -0.70710564 0.70710796 0 -0.70710564 0.70710796 0 -0.70710564 0.70710796 0 -0.70710564 0.70710796 0 0 0.7071065 0.7071072 0 0.7071065 0.7071072 0 0.7071065 0.7071072 0 0.7071065 0.7071072 0.70710564 0.70710796 0 0.70710564 0.70710796 0 0.70710564 0.70710796 0 0.70710564 0.70710796 0 -0.7071068 0 -0.7071068 -0.7071068 0 -0.7071068 -0.7071068 0 -0.7071068 -0.7071068 0 -0.7071068 0 0.70710754 -0.70710593 0 0.70710754 -0.70710593 0 0.70710754 -0.70710593 0 0.70710754 -0.70710593 0.7071068 0 -0.7071068 0.7071068 0 -0.7071068 0.7071068 0 -0.7071068 0.7071068 0 -0.7071068 0 -0.70710754 -0.70710593 0 -0.70710754 -0.70710593 0 -0.70710754 -0.70710593 0 -0.70710754 -0.70710593 -0.5773495 -0.57735014 0.57735133 -0.5773495 -0.57735014 0.57735133 -0.5773495 -0.57735014 0.57735133 0.5773495 -0.57735014 0.57735133 0.5773495 -0.57735014 0.57735133 0.5773495 -0.57735014 0.57735133 -0.5773501 0.5773507 0.5773501 -0.5773501 0.5773507 0.5773501 -0.5773501 0.5773507 0.5773501 0.5773501 0.5773507 0.5773501 0.5773501 0.5773507 0.5773501 0.5773501 0.5773507 0.5773501 -0.5773501 0.5773507 -0.5773501 -0.5773501 0.5773507 -0.5773501 -0.5773501 0.5773507 -0.5773501 0.5773501 0.5773507 -0.5773501 0.5773501 0.5773507 -0.5773501 0.5773501 0.5773507 -0.5773501 -0.5773501 -0.5773507 -0.5773501 -0.5773501 -0.5773507 -0.5773501 -0.5773501 -0.5773507 -0.5773501 0.5773501 -0.5773507 -0.5773501 0.5773501 -0.5773507 -0.5773501 0.5773501 -0.5773507 -0.5773501 0 -1 0 0 -1 0 0 -1 0 0 -1 0 0 0 1 0 0.038520627 0.9992578 0 0 1 0 0.038520627 0.9992578 -1 0 0 -1 0 0 -1 0 0 -1 0 0 1 0 0 1 0 0 1 0 0 1 0 0 0 0.7983553 0.60218674 0 0.8242739 0.5661913 0 0.7983553 0.60218674 0 0.8242739 0.5661913 0 0 -1 0 0 -1 0 0 -1 0 0 -1 -0.70710593 -0.70710754 0 -0.70710593 -0.70710754 0 -0.70710593 -0.70710754 0 -0.70710593 -0.70710754 0 0 -0.7071065 0.7071072 0 -0.7071065 0.7071072 0 -0.7071065 0.7071072 0 -0.7071065 0.7071072 -0.7071068 0 0.7071068 -0.705358 0.007295918 0.7088137 -0.7071068 0 0.7071068 -0.7470729 0.301562 0.5924041 0.70710593 -0.70710754 0 0.70710593 -0.70710754 0 0.70710593 -0.70710754 0 0.70710593 -0.70710754 0 0.7071068 0 0.7071068 0.7071068 0 0.7071068 0.705358 0.007295918 0.7088137 0.7470729 0.301562 0.5924041 -0.7470729 0.301562 0.5924041 -0.7029397 0.5764073 0.4166898 -0.7071074 0.5828499 0.4003563 -0.7071074 0.5828499 0.4003563 0 0.7983553 0.60218674 0 0.7983553 0.60218674 0.7470729 0.301562 0.5924041 0.7071074 0.5828499 0.4003563 0.7029397 0.5764073 0.4166898 0.7071074 0.5828499 0.4003563 -0.7071068 0 -0.7071068 -0.7071068 0 -0.7071068 -0.7071068 0 -0.7071068 -0.7071068 0 -0.7071068 0 0.8849256 -0.46573246 0 0.8849256 -0.46573246 0 0.8849256 -0.46573246 0 0.8849256 -0.46573246 0.7071068 0 -0.7071068 0.7071068 0 -0.7071068 0.7071068 0 -0.7071068 0.7071068 0 -0.7071068 0 -0.7071065 -0.7071072 0 -0.7071065 -0.7071072 0 -0.7071065 -0.7071072 0 -0.7071065 -0.7071072 -0.5773495 -0.57735014 0.57735133 -0.5773495 -0.57735014 0.57735133 -0.5773495 -0.57735014 0.57735133 0.5773495 -0.57735014 0.57735133 0.5773495 -0.57735014 0.57735133 0.5773495 -0.57735014 0.57735133 -0.7029397 0.5764073 0.4166898 0.7029397 0.5764073 0.4166898 -0.78382635 0.54952157 -0.28920957 -0.78382635 0.54952157 -0.28920957 -0.78382635 0.54952157 -0.28920957 0.78382635 0.54952157 -0.28920957 0.78382635 0.54952157 -0.28920957 0.78382635 0.54952157 -0.28920957 -0.5773495 -0.57735014 -0.57735133 -0.5773495 -0.57735014 -0.57735133 -0.5773495 -0.57735014 -0.57735133 0.5773495 -0.57735014 -0.57735133 0.5773495 -0.57735014 -0.57735133 0.5773495 -0.57735014 -0.57735133 0 3.61999E-06 -1 0 3.61999E-06 -1 0 3.61999E-06 -1 0 3.61999E-06 -1 0 -1 -3.619991E-06 0 -1 -3.619991E-06 0 -1 -3.619991E-06 0 -1 -3.619991E-06 -1 0 0 -1 0 0 -1 0 0 -1 0 0 1 0 0 1 0 0 1 0 0 1 0 0 0 -3.61999E-06 1 0 -3.61999E-06 1 0 -3.61999E-06 1 0 -3.61999E-06 1 0 1 3.619991E-06 0 1 3.619991E-06 0 1 3.619991E-06 0 1 3.619991E-06 -0.7071062 2.5597221E-06 -0.7071075 -0.7071062 2.5597221E-06 -0.7071075 -0.7071062 2.5597221E-06 -0.7071075 -0.7071062 2.5597221E-06 -0.7071075 0 -0.7071024 -0.7071111 0 -0.7071024 -0.7071111 0 -0.7071024 -0.7071111 0 -0.7071024 -0.7071111 -0.7071068 -0.7071068 -2.55972E-06 -0.7071068 -0.7071068 -2.55972E-06 -0.7071068 -0.7071068 -2.55972E-06 -0.7071068 -0.7071068 -2.55972E-06 0.7071062 2.5597221E-06 -0.7071075 0.7071062 2.5597221E-06 -0.7071075 0.7071062 2.5597221E-06 -0.7071075 0.7071062 2.5597221E-06 -0.7071075 0.7071068 -0.7071068 -2.55972E-06 0.7071068 -0.7071068 -2.55972E-06 0.7071068 -0.7071068 -2.55972E-06 0.7071068 -0.7071068 -2.55972E-06 -0.7071062 -2.5597221E-06 0.7071075 -0.7071062 -2.5597221E-06 0.7071075 -0.7071062 -2.5597221E-06 0.7071075 -0.7071062 -2.5597221E-06 0.7071075 0 -0.7071086 0.7071049 0 -0.7071086 0.7071049 0 -0.7071086 0.7071049 0 -0.7071086 0.7071049 0.7071062 -2.5597221E-06 0.7071075 0.7071062 -2.5597221E-06 0.7071075 0.7071062 -2.5597221E-06 0.7071075 0.7071062 -2.5597221E-06 0.7071075 -0.7071068 0.7071068 2.55972E-06 -0.7071068 0.7071068 2.55972E-06 -0.7071068 0.7071068 2.55972E-06 -0.7071068 0.7071068 2.55972E-06 0 0.7071036 0.70711 0 0.7071036 0.70711 0 0.7071036 0.70711 0 0.7071036 0.70711 0.7071068 0.7071068 2.55972E-06 0.7071068 0.7071068 2.55972E-06 0.7071068 0.7071068 2.55972E-06 0.7071068 0.7071068 2.55972E-06 0 0.7071072 -0.7071064 0 0.7071072 -0.7071064 0 0.7071072 -0.7071064 0 0.7071072 -0.7071064 -0.5773508 -0.5773468 -0.5773533 -0.5773508 -0.5773468 -0.5773533 -0.5773508 -0.5773468 -0.5773533 0.5773508 -0.5773468 -0.5773533 0.5773508 -0.5773468 -0.5773533 0.5773508 -0.5773468 -0.5773533 -0.5773508 -0.5773509 0.5773491 -0.5773508 -0.5773509 0.5773491 -0.5773508 -0.5773509 0.5773491 0.5773508 -0.5773509 0.5773491 0.5773508 -0.5773509 0.5773491 0.5773508 -0.5773509 0.5773491 -0.5773508 0.5773468 0.5773533 -0.5773508 0.5773468 0.5773533 -0.5773508 0.5773468 0.5773533 0.5773508 0.5773468 0.5773533 0.5773508 0.5773468 0.5773533 0.5773508 0.5773468 0.5773533 -0.5773495 0.5773516 -0.5773497 -0.5773495 0.5773516 -0.5773497 -0.5773495 0.5773516 -0.5773497 0.5773495 0.5773516 -0.5773497 0.5773495 0.5773516 -0.5773497 0.5773495 0.5773516 -0.5773497 0 3.61999E-06 -1 0 3.61999E-06 -1 0 3.61999E-06 -1 0 3.61999E-06 -1 0 -1 -3.61999E-06 0 -1 -3.61999E-06 0 -1 -3.61999E-06 0 -1 -3.61999E-06 -1 0 0 -1 0 0 -1 0 0 -1 0 0 1 0 0 1 0 0 1 0 0 1 0 0 0 -3.61999E-06 1 0 -3.61999E-06 1 0 -3.61999E-06 1 0 -3.61999E-06 1 0 1 3.61999E-06 0 1 3.61999E-06 0 1 3.61999E-06 0 1 3.61999E-06 -0.7071072 2.5597183E-06 -0.7071065 -0.7071072 2.5597183E-06 -0.7071065 -0.7071072 2.5597183E-06 -0.7071065 -0.7071072 2.5597183E-06 -0.7071065 0 -0.7071046 -0.707109 0 -0.7071046 -0.707109 0 -0.7071046 -0.707109 0 -0.7071046 -0.707109 -0.7071068 -0.7071068 -2.55972E-06 -0.7071068 -0.7071068 -2.55972E-06 -0.7071068 -0.7071068 -2.55972E-06 -0.7071068 -0.7071068 -2.55972E-06 0.7071072 2.5597183E-06 -0.7071065 0.7071072 2.5597183E-06 -0.7071065 0.7071072 2.5597183E-06 -0.7071065 0.7071072 2.5597183E-06 -0.7071065 0.7071068 -0.7071068 -2.55972E-06 0.7071068 -0.7071068 -2.55972E-06 0.7071068 -0.7071068 -2.55972E-06 0.7071068 -0.7071068 -2.55972E-06 -0.7071072 -2.5597183E-06 0.7071065 -0.7071072 -2.5597183E-06 0.7071065 -0.7071072 -2.5597183E-06 0.7071065 -0.7071072 -2.5597183E-06 0.7071065 0 -0.7071097 0.7071039 0 -0.7071097 0.7071039 0 -0.7071097 0.7071039 0 -0.7071097 0.7071039 0.7071072 -2.5597183E-06 0.7071065 0.7071072 -2.5597183E-06 0.7071065 0.7071072 -2.5597183E-06 0.7071065 0.7071072 -2.5597183E-06 0.7071065 -0.7071068 0.7071068 2.55972E-06 -0.7071068 0.7071068 2.55972E-06 -0.7071068 0.7071068 2.55972E-06 -0.7071068 0.7071068 2.55972E-06 0 0.7071046 0.707109 0 0.7071046 0.707109 0 0.7071046 0.707109 0 0.7071046 0.707109 0.7071068 0.7071068 2.55972E-06 0.7071068 0.7071068 2.55972E-06 0.7071068 0.7071068 2.55972E-06 0.7071068 0.7071068 2.55972E-06 0 0.7071097 -0.7071039 0 0.7071097 -0.7071039 0 0.7071097 -0.7071039 0 0.7071097 -0.7071039 -0.57735133 -0.57734734 -0.57735217 -0.57735133 -0.57734734 -0.57735217 -0.57735133 -0.57734734 -0.57735217 0.57735133 -0.57734734 -0.57735217 0.57735133 -0.57734734 -0.57735217 0.57735133 -0.57734734 -0.57735217 -0.5773513 -0.5773515 0.577348 -0.5773513 -0.5773515 0.577348 -0.5773513 -0.5773515 0.577348 0.5773513 -0.5773515 0.577348 0.5773513 -0.5773515 0.577348 0.5773513 -0.5773515 0.577348 -0.57735133 0.57734734 0.57735217 -0.57735133 0.57734734 0.57735217 -0.57735133 0.57734734 0.57735217 0.57735133 0.57734734 0.57735217 0.57735133 0.57734734 0.57735217 0.57735133 0.57734734 0.57735217 -0.5773513 0.5773515 -0.577348 -0.5773513 0.5773515 -0.577348 -0.5773513 0.5773515 -0.577348 0.5773513 0.5773515 -0.577348 0.5773513 0.5773515 -0.577348 0.5773513 0.5773515 -0.577348</float_array>
					<technique_common>
						<accessor source="#_0_Normal_array_id" count="378" stride="3">
							<param name="X" type="float" />
							<param name="Y" type="float" />
							<param name="Z" type="float" />
						</accessor>
					</technique_common>
				</source>
				<source id="_0_TexCoord0_id" name="_0_TexCoord0">
					<float_array id="_0_TexCoord0_array_id" count="756">0.387076 0.794053 0.387076 0.698326 0.482804 0.794053 0.482804 0.698326 0.0252166 0.698326 0.126728 0.698326 0.0252165 0.794053 0.126728 0.794053 0.126728 0.817981 0.126728 0.913709 0.0252165 0.817981 0.0252166 0.913709 0.0252166 0.57867 0.126728 0.57867 0.0252166 0.674397 0.126728 0.674397 0.147765 0.698326 0.243492 0.698326 0.147765 0.794053 0.243492 0.794053 0.264528 0.698326 0.36604 0.698326 0.264528 0.794053 0.36604 0.794053 0.482804 0.794053 0.482804 0.806017 0.387076 0.794053 0.387076 0.806017 0.0252165 0.794053 0.0161443 0.794053 0.0252166 0.698326 0.0161444 0.698326 0.0252165 0.806017 0.0252165 0.794053 0.126728 0.806017 0.126728 0.794053 0.482804 0.686361 0.482804 0.698326 0.387076 0.686361 0.387076 0.698326 0.0252166 0.698326 0.0252166 0.686361 0.126728 0.698326 0.126728 0.686361 0.147765 0.806017 0.147765 0.794053 0.243492 0.806017 0.243492 0.794053 0.1358 0.794052 0.126728 0.794053 0.1358 0.698326 0.126728 0.698326 0.147765 0.698326 0.147765 0.686361 0.243492 0.698326 0.243492 0.686361 0.264528 0.806017 0.264528 0.794053 0.36604 0.806017 0.36604 0.794053 0.255456 0.794053 0.243492 0.794053 0.255456 0.698326 0.243492 0.698326 0.264528 0.698326 0.264528 0.686361 0.36604 0.698326 0.36604 0.686361 0.375112 0.794053 0.36604 0.794053 0.375112 0.698326 0.36604 0.698326 0.0252165 0.806017 0.0161443 0.794053 0.0252165 0.794053 0.0161444 0.698326 0.0252166 0.686361 0.0252166 0.698326 0.1358 0.794052 0.126728 0.806017 0.126728 0.794053 0.126728 0.686361 0.1358 0.698326 0.126728 0.698326 0.255456 0.794053 0.243492 0.806017 0.243492 0.794053 0.243492 0.686361 0.255456 0.698326 0.243492 0.698326 0.375112 0.794053 0.36604 0.806017 0.36604 0.794053 0.36604 0.686361 0.375112 0.698326 0.36604 0.698326 0.347886 0.29684 0.347886 0.209656 0.43507 0.29684 0.435071 0.209656 0.046247 0.209656 0.137031 0.209656 0.046247 0.296841 0.137031 0.296841 0.13789 0.396787 0.0462471 0.396787 0.13789 0.309602 0.046247 0.309602 0.13789 0.109709 0.13789 0.196894 0.046247 0.109709 0.046247 0.196894 0.146872 0.209656 0.236299 0.209656 0.146872 0.29684 0.236299 0.296841 0.244627 0.209656 0.338437 0.209656 0.244627 0.296841 0.338437 0.29684 0.43507 0.29684 0.43507 0.303221 0.347886 0.29684 0.347886 0.303221 0.046247 0.296841 0.0416657 0.296841 0.046247 0.209656 0.0416657 0.209656 0.046247 0.296841 0.137031 0.296841 0.046247 0.303221 0.139201 0.303221 0.43507 0.203275 0.435071 0.209656 0.347886 0.203275 0.347886 0.209656 0.046247 0.209656 0.046247 0.203275 0.137031 0.209656 0.139201 0.203275 0.147432 0.303221 0.146872 0.29684 0.234616 0.303221 0.236299 0.296841 0.141612 0.294474 0.141612 0.209494 0.147432 0.203275 0.234616 0.203275 0.146872 0.209656 0.236299 0.209656 0.244627 0.296841 0.338437 0.29684 0.247388 0.303221 0.338437 0.303221 0.241096 0.296841 0.236299 0.296841 0.241096 0.209656 0.236299 0.209656 0.244627 0.209656 0.247388 0.203275 0.338437 0.209656 0.338437 0.203275 0.341505 0.29684 0.338437 0.29684 0.341505 0.209656 0.338437 0.209656 0.046247 0.303221 0.0416657 0.296841 0.046247 0.296841 0.0416657 0.209656 0.046247 0.203275 0.046247 0.209656 0.141612 0.294474 0.141612 0.209494 0.241096 0.296841 0.234616 0.303221 0.236299 0.296841 0.234616 0.203275 0.241096 0.209656 0.236299 0.209656 0.341505 0.29684 0.338437 0.303221 0.338437 0.29684 0.338437 0.203275 0.341505 0.209656 0.338437 0.209656 0.884672 0.29859 0.884672 0.203273 0.983389 0.29859 0.983389 0.203273 0.520208 0.203273 0.632993 0.203273 0.520208 0.29859 0.632993 0.29859 0.632993 0.320716 0.632993 0.419433 0.520208 0.320716 0.520208 0.419433 0.520208 0.082429 0.632993 0.082429 0.520208 0.181147 0.632993 0.181147 0.646385 0.203273 0.745103 0.203273 0.646385 0.29859 0.745103 0.29859 0.758495 0.203273 0.87128 0.203273 0.758495 0.29859 0.87128 0.29859 0.983389 0.29859 0.983389 0.310503 0.884672 0.29859 0.884672 0.310503 0.520208 0.29859 0.517029 0.29859 0.520208 0.203273 0.517029 0.203273 0.520208 0.310503 0.520208 0.29859 0.632993 0.310503 0.632993 0.29859 0.983389 0.19136 0.983389 0.203273 0.884672 0.19136 0.884672 0.203273 0.520208 0.203273 0.520208 0.19136 0.632993 0.203273 0.632993 0.19136 0.646385 0.310503 0.646385 0.29859 0.745103 0.310503 0.745103 0.29859 0.636172 0.29859 0.632993 0.29859 0.636172 0.203273 0.632993 0.203273 0.646385 0.203273 0.646385 0.19136 0.745103 0.203273 0.745103 0.19136 0.758495 0.310503 0.758495 0.29859 0.87128 0.310503 0.87128 0.29859 0.755316 0.29859 0.745103 0.29859 0.755316 0.203273 0.745103 0.203273 0.758495 0.203273 0.758495 0.19136 0.87128 0.203273 0.87128 0.19136 0.874459 0.29859 0.87128 0.29859 0.874459 0.203273 0.87128 0.203273 0.520208 0.310503 0.517029 0.29859 0.520208 0.29859 0.517029 0.203273 0.520208 0.19136 0.520208 0.203273 0.636172 0.29859 0.632993 0.310503 0.632993 0.29859 0.632993 0.19136 0.636172 0.203273 0.632993 0.203273 0.755316 0.29859 0.745103 0.310503 0.745103 0.29859 0.745103 0.19136 0.755316 0.203273 0.745103 0.203273 0.874459 0.29859 0.87128 0.310503 0.87128 0.29859 0.87128 0.19136 0.874459 0.203273 0.87128 0.203273 0.878021 0.777571 0.878021 0.680943 0.970088 0.777571 0.970088 0.680943 0.526012 0.680943 0.63161 0.680943 0.526012 0.777571 0.63161 0.777571 0.63161 0.798304 0.63161 0.890372 0.526012 0.798304 0.526012 0.890372 0.526012 0.568142 0.63161 0.568142 0.526012 0.660209 0.63161 0.660209 0.647859 0.680943 0.739926 0.680943 0.647859 0.777571 0.739926 0.777571 0.756174 0.680943 0.861773 0.680943 0.756174 0.777571 0.861773 0.777571 0.970088 0.777571 0.970088 0.786798 0.878021 0.777571 0.878021 0.786797 0.526012 0.777571 0.52127 0.777571 0.526012 0.680943 0.52127 0.680943 0.526012 0.786798 0.526012 0.777571 0.63161 0.786798 0.63161 0.777571 0.970088 0.671716 0.970088 0.680943 0.878021 0.671716 0.878021 0.680943 0.526012 0.680943 0.526012 0.671716 0.63161 0.680943 0.63161 0.671716 0.647859 0.786798 0.647859 0.777571 0.739926 0.786797 0.739926 0.777571 0.636352 0.777571 0.63161 0.777571 0.636352 0.680943 0.63161 0.680943 0.647859 0.680943 0.647859 0.671716 0.739926 0.680943 0.739926 0.671716 0.756174 0.786797 0.756174 0.777571 0.861773 0.786797 0.861773 0.777571 0.751433 0.777571 0.739926 0.777571 0.751433 0.680943 0.739926 0.680943 0.756174 0.680943 0.756174 0.671716 0.861773 0.680943 0.861773 0.671716 0.866514 0.777571 0.861773 0.777571 0.866514 0.680943 0.861773 0.680943 0.526012 0.786798 0.52127 0.777571 0.526012 0.777571 0.52127 0.680943 0.526012 0.671716 0.526012 0.680943 0.636352 0.777571 0.63161 0.786798 0.63161 0.777571 0.63161 0.671716 0.636352 0.680943 0.63161 0.680943 0.751433 0.777571 0.739926 0.786797 0.739926 0.777571 0.739926 0.671716 0.751433 0.680943 0.739926 0.680943 0.866514 0.777571 0.861773 0.786797 0.861773 0.777571 0.861773 0.671716 0.866514 0.680943 0.861773 0.680943</float_array>
					<technique_common>
						<accessor source="#_0_TexCoord0_array_id" count="378" stride="2">
							<param name="S" type="float" />
							<param name="T" type="float" />
						</accessor>
					</technique_common>
				</source>
				<vertices id="_0_vtx_id">
					<input semantic="POSITION" source="#_0_Position_id" />
					<input semantic="NORMAL" source="#_0_Normal_id" />
				</vertices>
				<triangles material="Mdl_8_Mtl_blockMt" count="176">
					<input semantic="VERTEX" source="#_0_vtx_id" offset="0" />
					<input semantic="TEXCOORD" source="#_0_TexCoord0_id" offset="0" set="0" />
					<p>101 102 100 101 103 102 101 145 103 145 144 103 129 130 128 129 131 130 129 172 131 138 136 137 138 137 139 138 139 173 1 2 0 1 3 2 5 6 4 5 7 6 9 10 8 9 11 10 13 14 12 13 15 14 17 18 16 17 19 18 21 22 20 21 23 22 25 26 24 25 27 26 29 30 28 29 31 30 33 34 32 33 35 34 37 38 36 37 39 38 41 42 40 41 43 42 45 46 44 45 47 46 49 50 48 49 51 50 53 54 52 53 55 54 57 58 56 57 59 58 61 62 60 61 63 62 65 66 64 65 67 66 69 70 68 69 71 70 97 98 96 97 99 98 105 106 104 105 107 106 109 110 108 109 111 110 113 114 112 113 115 114 117 118 116 117 119 118 121 122 120 121 123 122 125 126 124 125 127 126 133 134 132 133 135 134 141 142 140 141 143 142 147 148 146 147 149 148 151 152 150 151 153 152 155 156 154 155 157 156 159 160 158 159 161 160 163 164 162 163 165 164 187 188 186 187 189 188 191 192 190 191 193 192 195 196 194 195 197 196 199 200 198 199 201 200 203 204 202 203 205 204 207 208 206 207 209 208 211 212 210 211 213 212 215 216 214 215 217 216 219 220 218 219 221 220 223 224 222 223 225 224 227 228 226 227 229 228 231 232 230 231 233 232 235 236 234 235 237 236 239 240 238 239 241 240 243 244 242 243 245 244 247 248 246 247 249 248 251 252 250 251 253 252 255 256 254 255 257 256 283 284 282 283 285 284 287 288 286 287 289 288 291 292 290 291 293 292 295 296 294 295 297 296 299 300 298 299 301 300 303 304 302 303 305 304 307 308 306 307 309 308 311 312 310 311 313 312 315 316 314 315 317 316 319 320 318 319 321 320 323 324 322 323 325 324 327 328 326 327 329 328 331 332 330 331 333 332 335 336 334 335 337 336 339 340 338 339 341 340 343 344 342 343 345 344 347 348 346 347 349 348 351 352 350 351 353 352 72 73 74 75 76 77 78 79 80 81 82 83 84 85 86 87 88 89 90 91 92 93 94 95 166 167 168 169 170 171 174 175 176 177 178 179 180 181 182 183 184 185 258 259 260 261 262 263 264 265 266 267 268 269 270 271 272 273 274 275 276 277 278 279 280 281 354 355 356 357 358 359 360 361 362 363 364 365 366 367 368 369 370 371 372 373 374 375 376 377</p>
				</triangles>
			</mesh>
		</geometry>
		<geometry id="_1_geo_id" name="">
			<mesh>
				<source id="_1_Position_id" name="_1_Position">
					<float_array id="_1_Position_array_id" count="12">-1.63548 0 3.593733 1.63548 0 3.593733 -1.63548 0 -3.282605 1.63548 0 -3.282605</float_array>
					<technique_common>
						<accessor source="#_1_Position_array_id" count="4" stride="3">
							<param name="X" type="float" />
							<param name="Y" type="float" />
							<param name="Z" type="float" />
						</accessor>
					</technique_common>
				</source>
				<source id="_1_TexCoord0_id" name="_1_TexCoord0">
					<float_array id="_1_TexCoord0_array_id" count="8">0 0 1 0 0 1 1 1</float_array>
					<technique_common>
						<accessor source="#_1_TexCoord0_array_id" count="4" stride="2">
							<param name="S" type="float" />
							<param name="T" type="float" />
						</accessor>
					</technique_common>
				</source>
				<source id="_1_Normal_id" name="_1_Normal">
					<float_array id="_1_Normal_array_id" count="12">0 1 0 0 1 0 0 1 0 0 1 0</float_array>
					<technique_common>
						<accessor source="#_1_Normal_array_id" count="4" stride="3">
							<param name="X" type="float" />
							<param name="Y" type="float" />
							<param name="Z" type="float" />
						</accessor>
					</technique_common>
				</source>
				<vertices id="_1_vtx_id">
					<input semantic="POSITION" source="#_1_Position_id" />
					<input semantic="NORMAL" source="#_1_Normal_id" />
				</vertices>
				<triangles material="Mdl_8_Mtl_sdwMt" count="2">
					<input semantic="VERTEX" source="#_1_vtx_id" offset="0" />
					<input semantic="TEXCOORD" source="#_1_TexCoord0_id" offset="0" set="0" />
					<p>0 1 2 2 1 3</p>
				</triangles>
			</mesh>
		</geometry>
	</library_geometries>
	<library_controllers>
		<controller id="_0_ctrl_id" name="_0_ctrl">
			<skin source="#_0_geo_id">
				<bind_shape_matrix>1 0 0 0 0 1 0 0 0 0 1 0 0 0 0 1</bind_shape_matrix>
				<source id="_0_ctrl_names_id" name="_0_ctrl_names">
					<Name_array id="_0_ctrl_names_array_id" count="1">wall_low_root</Name_array>
					<technique_common>
						<accessor source="#_0_ctrl_names_array_id" count="1" stride="1">
							<param name="JOINT" type="Name" />
						</accessor>
					</technique_common>
				</source>
				<source id="_0_ctrl_poses_id" name="_0_ctrl_poses">
					<float_array id="_0_ctrl_poses_array_id" count="16">1 -0 0 0 -0 1 -0 0 0 -0 1 0 0 0 0 1</float_array>
					<technique_common>
						<accessor source="#_0_ctrl_poses_array_id" count="1" stride="16">
							<param name="TRANSFORM" type="float4x4" />
						</accessor>
					</technique_common>
				</source>
				<source id="_0_ctrl_weights_id" name="_0_ctrl_weights">
					<float_array id="_0_ctrl_weights_array_id" count="1">1</float_array>
					<technique_common>
						<accessor source="#_0_ctrl_weights_array_id" count="1" stride="1">
							<param name="WEIGHT" type="float" />
						</accessor>
					</technique_common>
				</source>
				<joints>
					<input semantic="JOINT" source="#_0_ctrl_names_id" />
					<input semantic="INV_BIND_MATRIX" source="#_0_ctrl_poses_id" />
				</joints>
				<vertex_weights count="378">
					<input semantic="JOINT" source="#_0_ctrl_names_id" offset="0" />
					<input semantic="WEIGHT" source="#_0_ctrl_weights_id" offset="1" />
					<vcount>1 1 1 1 1 1 1 1 1 1 1 1 1 1 1 1 1 1 1 1 1 1 1 1 1 1 1 1 1 1 1 1 1 1 1 1 1 1 1 1 1 1 1 1 1 1 1 1 1 1 1 1 1 1 1 1 1 1 1 1 1 1 1 1 1 1 1 1 1 1 1 1 1 1 1 1 1 1 1 1 1 1 1 1 1 1 1 1 1 1 1 1 1 1 1 1 1 1 1 1 1 1 1 1 1 1 1 1 1 1 1 1 1 1 1 1 1 1 1 1 1 1 1 1 1 1 1 1 1 1 1 1 1 1 1 1 1 1 1 1 1 1 1 1 1 1 1 1 1 1 1 1 1 1 1 1 1 1 1 1 1 1 1 1 1 1 1 1 1 1 1 1 1 1 1 1 1 1 1 1 1 1 1 1 1 1 1 1 1 1 1 1 1 1 1 1 1 1 1 1 1 1 1 1 1 1 1 1 1 1 1 1 1 1 1 1 1 1 1 1 1 1 1 1 1 1 1 1 1 1 1 1 1 1 1 1 1 1 1 1 1 1 1 1 1 1 1 1 1 1 1 1 1 1 1 1 1 1 1 1 1 1 1 1 1 1 1 1 1 1 1 1 1 1 1 1 1 1 1 1 1 1 1 1 1 1 1 1 1 1 1 1 1 1 1 1 1 1 1 1 1 1 1 1 1 1 1 1 1 1 1 1 1 1 1 1 1 1 1 1 1 1 1 1 1 1 1 1 1 1 1 1 1 1 1 1 1 1 1 1 1 1 1 1 1 1 1 1 1 1 1 1 1 1 1 1 1 1 1 1 1 1 1 1 1 1 1 1 1 1 1 1 1 1 1 1 1 1</vcount>
					<v>0 0 0 0 0 0 0 0 0 0 0 0 0 0 0 0 0 0 0 0 0 0 0 0 0 0 0 0 0 0 0 0 0 0 0 0 0 0 0 0 0 0 0 0 0 0 0 0 0 0 0 0 0 0 0 0 0 0 0 0 0 0 0 0 0 0 0 0 0 0 0 0 0 0 0 0 0 0 0 0 0 0 0 0 0 0 0 0 0 0 0 0 0 0 0 0 0 0 0 0 0 0 0 0 0 0 0 0 0 0 0 0 0 0 0 0 0 0 0 0 0 0 0 0 0 0 0 0 0 0 0 0 0 0 0 0 0 0 0 0 0 0 0 0 0 0 0 0 0 0 0 0 0 0 0 0 0 0 0 0 0 0 0 0 0 0 0 0 0 0 0 0 0 0 0 0 0 0 0 0 0 0 0 0 0 0 0 0 0 0 0 0 0 0 0 0 0 0 0 0 0 0 0 0 0 0 0 0 0 0 0 0 0 0 0 0 0 0 0 0 0 0 0 0 0 0 0 0 0 0 0 0 0 0 0 0 0 0 0 0 0 0 0 0 0 0 0 0 0 0 0 0 0 0 0 0 0 0 0 0 0 0 0 0 0 0 0 0 0 0 0 0 0 0 0 0 0 0 0 0 0 0 0 0 0 0 0 0 0 0 0 0 0 0 0 0 0 0 0 0 0 0 0 0 0 0 0 0 0 0 0 0 0 0 0 0 0 0 0 0 0 0 0 0 0 0 0 0 0 0 0 0 0 0 0 0 0 0 0 0 0 0 0 0 0 0 0 0 0 0 0 0 0 0 0 0 0 0 0 0 0 0 0 0 0 0 0 0 0 0 0 0 0 0 0 0 0 0 0 0 0 0 0 0 0 0 0 0 0 0 0 0 0 0 0 0 0 0 0 0 0 0 0 0 0 0 0 0 0 0 0 0 0 0 0 0 0 0 0 0 0 0 0 0 0 0 0 0 0 0 0 0 0 0 0 0 0 0 0 0 0 0 0 0 0 0 0 0 0 0 0 0 0 0 0 0 0 0 0 0 0 0 0 0 0 0 0 0 0 0 0 0 0 0 0 0 0 0 0 0 0 0 0 0 0 0 0 0 0 0 0 0 0 0 0 0 0 0 0 0 0 0 0 0 0 0 0 0 0 0 0 0 0 0 0 0 0 0 0 0 0 0 0 0 0 0 0 0 0 0 0 0 0 0 0 0 0 0 0 0 0 0 0 0 0 0 0 0 0 0 0 0 0 0 0 0 0 0 0 0 0 0 0 0 0 0 0 0 0 0 0 0 0 0 0 0 0 0 0 0 0 0 0 0 0 0 0 0 0 0 0 0 0 0 0 0 0 0 0 0 0 0 0 0 0 0 0 0 0 0 0 0 0 0 0 0 0 0 0 0 0 0 0 0 0 0 0 0 0 0 0 0 0 0 0 0 0 0 0 0 0 0 0 0 0 0 0 0 0 0 0 0 0 0 0 0 0 0 0 0 0 0 0 0 0 0 0 0 0 0 0 0 0 0 0 0 0 0 0 0 0 0 0 0 0 0 0 0 0 0 0 0 0 0 0 0 0 0 0 0 0 0 0 0 0 0 0 0 0 0 0 0 0 0 0 0 0 0 0 0 0 0 0 0 0 0 0 0 0 0 0 0 0 0 0 0 0 0 0 0 0 0 0 0 0 0 0 0 0 0 0 0 0 0 0 0</v>
				</vertex_weights>
			</skin>
		</controller>
		<controller id="_1_ctrl_id" name="_1_ctrl">
			<skin source="#_1_geo_id">
				<bind_shape_matrix>1 0 0 0 0 1 0 0 0 0 1 0 0 0 0 1</bind_shape_matrix>
				<source id="_1_ctrl_names_id" name="_1_ctrl_names">
					<Name_array id="_1_ctrl_names_array_id" count="1">wall_low_root</Name_array>
					<technique_common>
						<accessor source="#_1_ctrl_names_array_id" count="1" stride="1">
							<param name="JOINT" type="Name" />
						</accessor>
					</technique_common>
				</source>
				<source id="_1_ctrl_poses_id" name="_1_ctrl_poses">
					<float_array id="_1_ctrl_poses_array_id" count="16">1 -0 0 0 -0 1 -0 0 0 -0 1 0 0 0 0 1</float_array>
					<technique_common>
						<accessor source="#_1_ctrl_poses_array_id" count="1" stride="16">
							<param name="TRANSFORM" type="float4x4" />
						</accessor>
					</technique_common>
				</source>
				<source id="_1_ctrl_weights_id" name="_1_ctrl_weights">
					<float_array id="_1_ctrl_weights_array_id" count="1">1</float_array>
					<technique_common>
						<accessor source="#_1_ctrl_weights_array_id" count="1" stride="1">
							<param name="WEIGHT" type="float" />
						</accessor>
					</technique_common>
				</source>
				<joints>
					<input semantic="JOINT" source="#_1_ctrl_names_id" />
					<input semantic="INV_BIND_MATRIX" source="#_1_ctrl_poses_id" />
				</joints>
				<vertex_weights count="4">
					<input semantic="JOINT" source="#_1_ctrl_names_id" offset="0" />
					<input semantic="WEIGHT" source="#_1_ctrl_weights_id" offset="1" />
					<vcount>1 1 1 1</vcount>
					<v>0 0 0 0 0 0 0 0</v>
				</vertex_weights>
			</skin>
		</controller>
	</library_controllers>
	<library_visual_scenes>
		<visual_scene id="wall_low_model_merge_08_id" name="wall_low_model_merge_08">
			<node id="wall_low_root_bone_id" name="wall_low_root" sid="wall_low_root" type="JOINT">
				<translate sid="translate">0 0 0</translate>
				<rotate sid="rotateZ">0 0 1 0</rotate>
				<rotate sid="rotateY">0 1 0 0</rotate>
				<rotate sid="rotateX">1 0 0 0</rotate>
				<scale sid="scale">1 1 1</scale>
			</node>
			<node id="_id" name="" type="NODE">
				<matrix>1 0 0 0 0 1 0 0 0 0 1 0 0 0 0 1</matrix>
				<instance_controller url="#_0_ctrl_id">
					<skeleton>#wall_low_root_bone_id</skeleton>
					<bind_material>
						<technique_common>
							<instance_material symbol="Mdl_8_Mtl_blockMt" target="#blockMt_id" />
						</technique_common>
					</bind_material>
				</instance_controller>
			</node>
			<node id="_id" name="" type="NODE">
				<matrix>1 0 0 0 0 1 0 0 0 0 1 0 0 0 0 1</matrix>
				<instance_controller url="#_1_ctrl_id">
					<skeleton>#wall_low_root_bone_id</skeleton>
					<bind_material>
						<technique_common>
							<instance_material symbol="Mdl_8_Mtl_sdwMt" target="#sdwMt_id" />
						</technique_common>
					</bind_material>
				</instance_controller>
			</node>
		</visual_scene>
	</library_visual_scenes>
	<scene>
		<instance_visual_scene url="#wall_low_model_merge_08_id" />
	</scene>
</COLLADA>